<?xml version="1.0" encoding="UTF-8" standalone="no"?>
<!-- Created with Inkscape (http://www.inkscape.org/) -->

<svg
   xmlns:dc="http://purl.org/dc/elements/1.1/"
   xmlns:cc="http://creativecommons.org/ns#"
   xmlns:rdf="http://www.w3.org/1999/02/22-rdf-syntax-ns#"
   xmlns:svg="http://www.w3.org/2000/svg"
   xmlns="http://www.w3.org/2000/svg"
   xmlns:sodipodi="http://sodipodi.sourceforge.net/DTD/sodipodi-0.dtd"
   xmlns:inkscape="http://www.inkscape.org/namespaces/inkscape"
   width="112.02912mm"
   height="31.552444mm"
   viewBox="0 0 112.02912 31.552444"
   version="1.1"
   id="svg26993"
   inkscape:version="0.92.4 (f8dce91, 2019-08-02)"
   sodipodi:docname="cloud-3.svg">
  <defs
     id="defs26987">
    <clipPath
       clipPathUnits="userSpaceOnUse"
       id="clipPath42296">
      <path
         d="m 629.479,1419.69 h 137.2 v -25.59 h -137.2 z"
         id="path42294"
         inkscape:connector-curvature="0" />
    </clipPath>
    <clipPath
       clipPathUnits="userSpaceOnUse"
       id="clipPath42244">
      <path
         d="m 586.12,1447.04 h 124.172 v -54.35 H 586.12 Z"
         id="path42242"
         inkscape:connector-curvature="0" />
    </clipPath>
    <clipPath
       clipPathUnits="userSpaceOnUse"
       id="clipPath42192">
      <path
         d="m 517.706,1469.92 h 67.295 v -38.84 h -67.295 z"
         id="path42190"
         inkscape:connector-curvature="0" />
    </clipPath>
    <clipPath
       clipPathUnits="userSpaceOnUse"
       id="clipPath42140">
      <path
         d="m 483.018,1455.51 h 48.475 v -33.39 h -48.475 z"
         id="path42138"
         inkscape:connector-curvature="0" />
    </clipPath>
    <clipPath
       clipPathUnits="userSpaceOnUse"
       id="clipPath42088">
      <path
         d="m 449.115,1427.33 h 45.021 v -46.85 h -45.021 z"
         id="path42086"
         inkscape:connector-curvature="0" />
    </clipPath>
  </defs>
  <sodipodi:namedview
     id="base"
     pagecolor="#ffffff"
     bordercolor="#666666"
     borderopacity="1.0"
     inkscape:pageopacity="0.0"
     inkscape:pageshadow="2"
     inkscape:zoom="0.35"
     inkscape:cx="1380.28"
     inkscape:cy="-497.51618"
     inkscape:document-units="mm"
     inkscape:current-layer="layer1"
     showgrid="false"
     inkscape:window-width="1920"
     inkscape:window-height="1135"
     inkscape:window-x="0"
     inkscape:window-y="0"
     inkscape:window-maximized="1" />
  <metadata
     id="metadata26990">
    <rdf:RDF>
      <cc:Work
         rdf:about="">
        <dc:format>image/svg+xml</dc:format>
        <dc:type
           rdf:resource="http://purl.org/dc/dcmitype/StillImage" />
        <dc:title></dc:title>
      </cc:Work>
    </rdf:RDF>
  </metadata>
  <g
     inkscape:label="Layer 1"
     inkscape:groupmode="layer"
     id="layer1"
     transform="translate(259.36576,14.3536)">
    <g
       transform="matrix(0.35277777,0,0,-0.35277777,-417.80373,504.2015)"
       id="g42082">
      <g
         id="g42084" />
      <g
         id="g42132">
        <g
           style="opacity:0.85000598"
           id="g42130"
           clip-path="url(#clipPath42088)">
          <g
             id="g42092"
             transform="translate(488.2085,1426.2236)">
            <path
               inkscape:connector-curvature="0"
               id="path42090"
               style="fill:#ffffff;fill-opacity:1;fill-rule:nonzero;stroke:none"
               d="M 0,0 -0.824,0.308 C -0.698,0.218 -0.583,0.104 -0.479,-0.05 -0.323,-0.18 -0.181,-0.075 0,0" />
          </g>
          <g
             id="g42096"
             transform="translate(486.6206,1426.8188)">
            <path
               inkscape:connector-curvature="0"
               id="path42094"
               style="fill:#ffffff;fill-opacity:1;fill-rule:nonzero;stroke:none"
               d="M 0,0 C -0.05,0.019 -0.1,0.038 -0.146,0.056 -0.195,0.051 -0.244,0.046 -0.29,0.042 Z" />
          </g>
          <g
             id="g42100"
             transform="translate(485.1001,1427.0483)">
            <path
               inkscape:connector-curvature="0"
               id="path42098"
               style="fill:#ffffff;fill-opacity:1;fill-rule:nonzero;stroke:none"
               d="M 0,0 C 0.253,-0.099 0.508,-0.138 0.761,-0.158 0.56,-0.059 0.311,0.004 0,0" />
          </g>
          <g
             id="g42104"
             transform="translate(486.2358,1426.6064)">
            <path
               inkscape:connector-curvature="0"
               id="path42102"
               style="fill:#ffffff;fill-opacity:1;fill-rule:nonzero;stroke:none"
               d="m 0,0 c -0.063,0.119 -0.081,0.228 0.089,0.254 h 0.006 c -0.156,0.01 -0.311,0.02 -0.47,0.03 C -0.225,0.208 -0.098,0.115 0,0" />
          </g>
          <g
             id="g42108"
             transform="translate(486.2358,1426.6064)">
            <path
               inkscape:connector-curvature="0"
               id="path42106"
               style="fill:#ffffff;fill-opacity:1;fill-rule:nonzero;stroke:none"
               d="M 0,0 C 0.06,-0.117 0.17,-0.245 0.201,-0.312 0.148,-0.204 0.081,-0.099 0,0" />
          </g>
          <g
             id="g42112"
             transform="translate(485.2642,1424.5005)">
            <path
               inkscape:connector-curvature="0"
               id="path42110"
               style="fill:#ffffff;fill-opacity:1;fill-rule:nonzero;stroke:none"
               d="M 0,0 C -0.155,-0.037 0.044,0.579 -0.269,0.506 -0.964,0.473 -1.557,0.371 -2.163,0.449 -2.459,0.349 -2.779,1.126 -3.083,1.029 -3.78,1.004 -5.51,0.217 -4.535,0.193 -3.803,0.206 -3.208,0.13 -2.617,0.12 -2.024,0.114 -1.457,0.06 -0.804,-0.048 0.308,-0.013 1.378,-0.089 2.535,-0.218 2.836,-0.314 3.09,-0.476 3.346,-0.632 3.025,-0.398 2.708,-0.117 2.314,0.101 1.807,0.443 0.888,-0.085 0,0" />
          </g>
          <g
             id="g42116"
             transform="translate(493.7568,1422.9644)">
            <path
               inkscape:connector-curvature="0"
               id="path42114"
               style="fill:#ffffff;fill-opacity:1;fill-rule:nonzero;stroke:none"
               d="m 0,0 c -0.166,0.021 -0.498,0.064 -0.498,0.064 -0.154,0.377 -0.411,0.627 -0.71,0.81 -0.31,0.165 -0.672,0.245 -1.024,0.333 l 0.12,-0.429 c 0.369,-0.153 0.502,-0.02 0.255,0.27 0.548,-0.7 1.107,-1.223 1.815,-1.577 C 0.016,-0.357 0.139,-0.197 0,0" />
          </g>
          <g
             id="g42120"
             transform="translate(494.1309,1422.229)">
            <path
               inkscape:connector-curvature="0"
               id="path42118"
               style="fill:#ffffff;fill-opacity:1;fill-rule:nonzero;stroke:none"
               d="M 0,0 C -0.14,0.069 -0.28,0.139 -0.417,0.207 L -0.434,0.152 c 0.148,-0.059 0.295,-0.117 0.439,-0.174 z" />
          </g>
          <g
             id="g42124"
             transform="translate(481.8516,1427.0649)">
            <path
               inkscape:connector-curvature="0"
               id="path42122"
               style="fill:#ffffff;fill-opacity:1;fill-rule:nonzero;stroke:none"
               d="M 0,0 C -1.974,0.195 -3.842,0.318 -5.671,0.241 -5.804,0.105 -5.89,-0.047 -6.083,0.015 -6.233,0.117 -6.383,0.178 -6.53,0.215 -6.798,0.208 -7.065,0.203 -7.329,0.169 -7.418,0.139 -7.509,0.109 -7.602,0.078 L -7.609,0.073 c -0.139,-0.094 -0.081,-0.186 0.022,-0.267 0.11,-0.053 0.212,-0.119 0.302,-0.192 -0.057,0.047 -0.201,0.113 -0.302,0.192 -0.134,0.063 -0.281,0.107 -0.448,0.119 -0.235,-0.075 -0.482,-0.135 -0.747,-0.135 0.276,0.117 0.526,0.153 0.747,0.135 0.147,0.052 0.29,0.102 0.433,0.153 l 0.122,0.077 c -0.61,-0.059 -1.217,-0.118 -1.825,-0.176 -0.134,-0.048 -0.262,-0.092 -0.364,-0.137 -0.415,-0.182 -0.819,-0.363 -1.159,-0.118 l -0.326,-0.054 c 0.026,-0.014 0.049,-0.027 0.076,-0.042 -0.052,0.008 -0.097,0.019 -0.135,0.032 -0.462,-0.061 -0.904,-0.208 -1.362,-0.308 -0.252,-0.206 -0.5,-0.443 -0.764,-0.622 0,0 -0.269,0.142 -0.403,0.212 -0.064,-0.199 -0.194,-0.366 -0.369,-0.495 0.295,-0.095 0.594,-0.193 0.818,-0.266 0.389,-0.217 0.449,0.818 0.979,0.345 -0.53,0.473 -0.59,-0.562 -0.979,-0.345 -0.224,0.073 -0.523,0.171 -0.818,0.266 -0.364,-0.27 -0.923,-0.37 -1.475,-0.253 0.422,0.464 0.978,0.402 1.475,0.253 0.175,0.129 0.305,0.296 0.369,0.495 0.134,-0.07 0.403,-0.212 0.403,-0.212 0.264,0.179 0.512,0.416 0.764,0.622 -0.442,-0.114 -0.894,-0.209 -1.339,-0.341 -0.441,-0.148 -0.885,-0.297 -1.335,-0.447 -5.797,-2.008 -10.407,-6.017 -13.726,-11.582 -1.802,-3.036 -3.057,-6.321 -3.597,-9.81 -0.262,-1.742 -0.194,-3.494 0.089,-5.222 0.358,-1.698 0.853,-3.359 1.599,-4.899 0.716,-1.555 1.568,-3.045 2.553,-4.488 0.956,-1.473 2.061,-2.879 3.269,-4.366 0.941,-1.128 2.68,-2.33 4.574,-3.211 1.909,-0.868 3.967,-1.34 5.379,-1.571 2.005,0.229 2.478,1.189 2.503,2.023 0.018,0.849 -0.364,1.632 -0.423,1.718 -0.825,1.263 -1.498,1.684 -2.451,2.066 -0.908,0.439 -2.149,0.822 -3.333,2.293 0.857,-0.891 0.326,-1.041 -0.657,-0.62 -0.939,0.468 -2.238,1.6 -2.5,2.978 -0.374,1.974 -1.411,3.336 -2.468,4.911 -1.045,1.536 -2.064,3.349 -2.023,5.176 -0.013,0.887 -0.144,1.85 -0.078,2.934 0.539,2.782 1.338,5.398 2.609,7.971 1.273,2.544 3.082,5.041 5.672,6.802 1.293,1.014 2.3,2.22 3.486,3.169 0.45,0.303 1.009,0.423 1.517,0.573 0.509,0.152 1.012,0.236 1.43,0.354 1.292,0.441 2.395,0.898 3.481,1.387 -0.632,-0.135 -1.148,-0.379 -1.692,-0.558 -0.547,-0.174 -1.086,-0.424 -1.744,-0.682 -0.893,-0.322 0.369,0.989 0.965,1.35 0.238,0.201 0.831,-0.4 1.061,-0.198 0.577,0.139 1.054,0.544 1.674,0.801 0.255,0.183 0.318,-0.461 0.442,-0.37 0.831,0.296 1.45,1.146 2.041,1.01 0.441,-0.074 0.835,-0.114 1.217,-0.232 0.241,-0.038 0.478,-0.068 0.732,-0.045 0.159,0.052 0.322,0.106 0.486,0.159 -0.125,0.198 -0.169,0.44 -0.21,0.684 0.242,-0.037 0.578,-0.182 0.815,-0.219 -0.237,0.037 -0.573,0.182 -0.815,0.219 0.041,-0.244 0.085,-0.486 0.21,-0.684 0.594,0.208 1.24,0.31 1.909,0.427 0.67,0.132 1.355,0.188 2.02,0.21 l -0.008,0.06 c -0.383,0.026 -0.754,0.092 -1.125,0.198 -0.374,0.087 -0.746,0.231 -1.132,0.46 0.335,-0.171 0.274,-0.346 -0.118,-0.351 l -0.279,0.346 c 0.695,0.111 1.427,0.277 2.009,-0.298 0,0 0.311,0.096 0.467,0.144 C 0.784,-0.542 0.742,-0.741 0.759,-0.918 0.908,-0.925 1.061,-0.933 1.214,-0.94 0.96,-0.574 0,0 0,0" />
          </g>
          <g
             id="g42128"
             transform="translate(473.7959,1427.0059)">
            <path
               inkscape:connector-curvature="0"
               id="path42126"
               style="fill:#ffffff;fill-opacity:1;fill-rule:nonzero;stroke:none"
               d="M 0,0 C 0.103,0.037 0.231,0.07 0.368,0.106 L -1.162,-0.03 C -0.837,-0.299 -0.424,-0.15 0,0" />
          </g>
        </g>
      </g>
    </g>
    <g
       transform="matrix(0.35277777,0,0,-0.35277777,-417.80373,504.2015)"
       id="g42134">
      <g
         id="g42136" />
      <g
         id="g42184">
        <g
           style="opacity:0.85000598"
           id="g42182"
           clip-path="url(#clipPath42140)">
          <g
             id="g42144"
             transform="translate(527.8535,1447.5376)">
            <path
               inkscape:connector-curvature="0"
               id="path42142"
               style="fill:#ffffff;fill-opacity:1;fill-rule:nonzero;stroke:none"
               d="M 0,0 -0.528,0.512 C -0.465,0.396 -0.418,0.265 -0.401,0.095 -0.332,-0.067 -0.175,-0.015 0,0" />
          </g>
          <g
             id="g42148"
             transform="translate(526.8311,1448.5186)">
            <path
               inkscape:connector-curvature="0"
               id="path42146"
               style="fill:#ffffff;fill-opacity:1;fill-rule:nonzero;stroke:none"
               d="M 0,0 -0.095,0.09 -0.219,0.116 C -0.143,0.082 -0.07,0.042 0,0" />
          </g>
          <g
             id="g42152"
             transform="translate(525.7349,1449.2007)">
            <path
               inkscape:connector-curvature="0"
               id="path42150"
               style="fill:#ffffff;fill-opacity:1;fill-rule:nonzero;stroke:none"
               d="M 0,0 C 0.155,-0.169 0.334,-0.29 0.522,-0.389 0.41,-0.235 0.245,-0.097 0,0" />
          </g>
          <g
             id="g42156"
             transform="translate(526.4253,1448.438)">
            <path
               inkscape:connector-curvature="0"
               id="path42154"
               style="fill:#ffffff;fill-opacity:1;fill-rule:nonzero;stroke:none"
               d="M 0,0 C 0,0.123 0.034,0.225 0.182,0.199 L 0.187,0.197 -0.168,0.374 C -0.084,0.257 -0.029,0.13 0,0" />
          </g>
          <g
             id="g42160"
             transform="translate(526.4253,1448.438)">
            <path
               inkscape:connector-curvature="0"
               id="path42158"
               style="fill:#ffffff;fill-opacity:1;fill-rule:nonzero;stroke:none"
               d="M 0,0 C 0,-0.118 0.035,-0.263 0.031,-0.331 0.035,-0.22 0.025,-0.108 0,0" />
          </g>
          <g
             id="g42164"
             transform="translate(524.7324,1446.8755)">
            <path
               inkscape:connector-curvature="0"
               id="path42162"
               style="fill:#ffffff;fill-opacity:1;fill-rule:nonzero;stroke:none"
               d="M 0,0 C -0.14,0.021 0.29,0.503 0.011,0.544 -0.547,0.76 -1.103,0.822 -1.524,1.129 -1.801,1.148 -1.688,1.958 -1.972,1.976 -2.55,2.164 -4.2,2.177 -3.481,1.768 -2.394,1.174 -1.63,0.836 -0.662,0.231 0.218,-0.144 1.113,-0.482 1.985,-0.967 2.209,-1.125 2.361,-1.335 2.516,-1.543 2.344,-1.239 2.157,-0.937 1.937,-0.612 1.682,-0.139 0.681,-0.368 0,0" />
          </g>
          <g
             id="g42168"
             transform="translate(531.3867,1443.4761)">
            <path
               inkscape:connector-curvature="0"
               id="path42166"
               style="fill:#ffffff;fill-opacity:1;fill-rule:nonzero;stroke:none"
               d="M 0,0 C -0.138,0.043 -0.415,0.131 -0.415,0.131 -0.46,0.856 -1.001,1.168 -1.546,1.459 L -1.593,1.047 c 0.261,-0.214 0.419,-0.117 0.31,0.195 0.198,-0.766 0.594,-1.274 1.088,-1.719 C -0.094,-0.329 0.061,-0.199 0,0" />
          </g>
          <g
             id="g42172"
             transform="translate(531.4932,1442.7485)">
            <path
               inkscape:connector-curvature="0"
               id="path42170"
               style="fill:#ffffff;fill-opacity:1;fill-rule:nonzero;stroke:none"
               d="M 0,0 C -0.102,0.084 -0.203,0.168 -0.302,0.25 L -0.333,0.203 c 0.111,-0.076 0.223,-0.151 0.331,-0.224 z" />
          </g>
          <g
             id="g42176"
             transform="translate(523.2095,1450.314)">
            <path
               inkscape:connector-curvature="0"
               id="path42174"
               style="fill:#ffffff;fill-opacity:1;fill-rule:nonzero;stroke:none"
               d="M 0,0 C -1.405,0.915 -2.762,1.725 -4.145,2.426 -4.307,2.359 -4.442,2.259 -4.557,2.391 -4.621,2.542 -4.705,2.656 -4.797,2.748 -5,2.851 -5.207,2.942 -5.413,3.034 -5.491,3.047 -5.572,3.06 -5.654,3.073 L -5.662,3.072 C -5.806,3.049 -5.805,2.943 -5.767,2.826 -5.709,2.73 -5.665,2.627 -5.633,2.524 -5.653,2.589 -5.729,2.711 -5.767,2.826 -5.836,2.94 -5.924,3.043 -6.041,3.127 -6.248,3.159 -6.46,3.202 -6.658,3.309 -6.4,3.301 -6.196,3.237 -6.041,3.127 L -5.654,3.073 -5.53,3.088 C -6.001,3.31 -6.484,3.493 -6.965,3.689 -7.083,3.713 -7.198,3.725 -7.293,3.73 -7.68,3.747 -8.053,3.771 -8.204,4.125 l -0.268,0.083 c 0.014,-0.023 0.025,-0.043 0.039,-0.069 -0.035,0.029 -0.065,0.057 -0.088,0.083 -0.375,0.119 -0.756,0.229 -1.144,0.321 -0.275,-0.076 -0.556,-0.171 -0.829,-0.234 0,0 -0.146,0.235 -0.218,0.353 -0.128,-0.146 -0.292,-0.233 -0.474,-0.264 0.188,-0.219 0.348,-0.455 0.503,-0.608 0.203,-0.346 0.671,0.557 0.87,-0.099 -0.199,0.656 -0.667,-0.247 -0.87,0.099 -0.155,0.153 -0.315,0.389 -0.503,0.608 -0.379,-0.072 -0.838,0.07 -1.212,0.416 0.501,0.234 0.9,-0.054 1.212,-0.416 0.182,0.031 0.346,0.118 0.474,0.264 0.072,-0.118 0.218,-0.353 0.218,-0.353 0.273,0.063 0.554,0.158 0.829,0.234 -0.752,0.2 -1.529,0.349 -2.333,0.459 -2.58,0.38 -5.192,0.198 -7.676,-0.612 -2.478,-0.784 -4.879,-2.233 -6.819,-4.335 -1.071,-1.125 -1.985,-2.377 -2.72,-3.74 -0.195,-0.336 -0.36,-0.686 -0.516,-1.043 -0.171,-0.35 -0.317,-0.712 -0.444,-1.084 -0.142,-0.366 -0.268,-0.739 -0.365,-1.124 l -0.159,-0.574 c -0.03,-0.096 -0.043,-0.195 -0.064,-0.293 -0.019,-0.111 -0.037,-0.195 -0.051,-0.225 -0.138,-0.374 -0.2,-0.612 -0.213,-0.874 -0.058,-0.215 0.166,-0.631 -0.256,-0.371 -0.172,0.051 -0.341,0.081 -0.506,0.084 -0.082,-0.003 -0.164,0.004 -0.243,-0.01 l -0.118,-0.015 c -0.017,-0.003 -0.074,-0.013 0.056,0.028 l -0.237,-0.067 c -1.275,-0.355 -2.408,-0.962 -3.421,-1.732 -1.011,-0.775 -1.915,-1.719 -2.674,-2.887 -0.384,-0.58 -0.719,-1.227 -0.993,-1.938 -0.279,-0.705 -0.471,-1.357 -0.64,-2.086 -0.356,-1.556 0.004,-3.839 0.929,-5.678 0.899,-1.869 2.241,-3.328 3.222,-4.218 1.678,-0.839 2.586,-0.198 3.041,0.483 0.465,0.709 0.604,1.527 0.609,1.622 0.113,1.427 -0.117,2.019 -0.532,2.738 -0.379,0.687 -0.981,1.605 -0.733,3.015 -0.072,-0.92 -0.535,-0.821 -0.868,-0.069 -0.165,0.365 -0.217,0.883 -0.126,1.385 0.118,0.502 0.395,0.978 0.858,1.248 0.613,0.304 1.015,0.441 1.354,0.663 0.332,0.211 0.619,0.457 0.91,0.717 0.289,0.257 0.596,0.511 0.889,0.667 l 0.027,0.017 c 0.039,0 0.302,0.069 0.323,0.032 l 0.395,-0.111 0.786,-0.219 c 0.509,-0.14 1.189,-0.369 1.771,-0.55 0.642,-0.212 1.282,-0.424 1.919,-0.634 0.626,-0.219 1.249,-0.438 1.87,-0.655 -0.025,0.155 -0.037,0.245 -0.044,0.319 l -0.027,0.249 -0.045,0.49 -0.193,1.244 c -0.114,0.847 -0.358,1.995 -0.611,3.111 -0.114,0.55 -0.231,1.113 -0.352,1.691 -0.153,0.581 -0.173,1.155 -0.121,1.631 l 0.035,0.221 0.024,0.09 c 0.015,0.06 0.028,0.119 0.054,0.179 l 0.123,0.356 c 0.062,0.237 0.171,0.469 0.253,0.701 0.173,0.464 0.375,0.922 0.593,1.374 0.438,0.904 0.968,1.79 1.615,2.603 0.646,0.811 1.412,1.549 2.291,2.111 0.922,0.59 2.007,1.033 3.197,1.246 1.234,0.278 2.351,0.962 3.562,1.265 0.881,0.103 1.786,-0.327 2.478,-0.437 1.099,-0.17 2.084,-0.205 3.076,-0.23 -1.046,0.212 -1.833,0.246 -2.985,0.342 -0.773,0.092 0.664,0.74 1.247,0.783 0.26,0.084 0.44,-0.681 0.688,-0.607 0.472,-0.125 0.987,0.022 1.558,0.016 0.268,0.062 0.026,-0.535 0.155,-0.51 0.714,-0.108 1.572,0.424 1.946,0.062 0.293,-0.24 0.543,-0.479 0.786,-0.705 0.165,-0.121 0.326,-0.245 0.527,-0.322 0.143,-0.017 0.29,-0.034 0.437,-0.05 0,0.224 0.081,0.454 0.164,0.685 C -2.816,0.342 -2.64,0.07 -2.483,-0.062 -2.64,0.07 -2.816,0.342 -2.982,0.465 -3.065,0.234 -3.146,0.004 -3.146,-0.22 c 1.05,-0.155 2.229,-0.492 3.294,-0.905 l 0.021,0.055 c -0.57,0.32 -1.052,0.716 -1.424,1.407 0.174,-0.278 0.046,-0.409 -0.254,-0.265 l -0.05,0.41 c 0.588,-0.152 1.196,-0.315 1.388,-1.016 0,0 0.289,-0.021 0.433,-0.031 C 0.363,-0.745 0.237,-0.907 0.169,-1.07 0.279,-1.134 0.393,-1.194 0.51,-1.253 0.487,-0.83 0,0 0,0" />
          </g>
          <g
             id="g42180"
             transform="translate(517.1606,1453.4648)">
            <path
               inkscape:connector-curvature="0"
               id="path42178"
               style="fill:#ffffff;fill-opacity:1;fill-rule:nonzero;stroke:none"
               d="M 0,0 C 0.092,-0.013 0.201,-0.04 0.318,-0.067 -0.072,0.124 -0.479,0.271 -0.881,0.442 -0.757,0.069 -0.383,0.039 0,0" />
          </g>
        </g>
      </g>
    </g>
    <g
       transform="matrix(0.35277777,0,0,-0.35277777,-417.80373,504.2015)"
       id="g42186">
      <g
         id="g42188" />
      <g
         id="g42236">
        <g
           style="opacity:0.85000598"
           id="g42234"
           clip-path="url(#clipPath42192)">
          <g
             id="g42196"
             transform="translate(579.8667,1435.5894)">
            <path
               inkscape:connector-curvature="0"
               id="path42194"
               style="fill:#ffffff;fill-opacity:1;fill-rule:nonzero;stroke:none"
               d="M 0,0 C -0.133,0.254 -0.243,0.524 -0.357,0.791 -0.336,0.64 -0.339,0.479 -0.376,0.293 -0.361,0.084 -0.177,0.065 0,0" />
          </g>
          <g
             id="g42200"
             transform="translate(579.2334,1437.1343)">
            <path
               inkscape:connector-curvature="0"
               id="path42198"
               style="fill:#ffffff;fill-opacity:1;fill-rule:nonzero;stroke:none"
               d="m 0,0 c -0.016,0.05 -0.032,0.1 -0.046,0.146 -0.035,0.036 -0.069,0.071 -0.1,0.104 z" />
          </g>
          <g
             id="g42204"
             transform="translate(578.5669,1438.5728)">
            <path
               inkscape:connector-curvature="0"
               id="path42202"
               style="fill:#ffffff;fill-opacity:1;fill-rule:nonzero;stroke:none"
               d="M 0,0 C 0.055,-0.283 0.161,-0.536 0.283,-0.77 0.255,-0.537 0.172,-0.279 0,0" />
          </g>
          <g
             id="g42208"
             transform="translate(578.8242,1437.3145)">
            <path
               inkscape:connector-curvature="0"
               id="path42206"
               style="fill:#ffffff;fill-opacity:1;fill-rule:nonzero;stroke:none"
               d="M 0,0 C 0.057,0.121 0.137,0.195 0.259,0.075 L 0.263,0.07 C 0.181,0.198 0.102,0.341 0.025,0.489 0.045,0.313 0.032,0.145 0,0" />
          </g>
          <g
             id="g42212"
             transform="translate(578.8242,1437.3145)">
            <path
               inkscape:connector-curvature="0"
               id="path42210"
               style="fill:#ffffff;fill-opacity:1;fill-rule:nonzero;stroke:none"
               d="M 0,0 C -0.056,-0.117 -0.086,-0.286 -0.119,-0.353 -0.068,-0.242 -0.028,-0.124 0,0" />
          </g>
          <g
             id="g42216"
             transform="translate(576.5322,1436.9634)">
            <path
               inkscape:connector-curvature="0"
               id="path42214"
               style="fill:#ffffff;fill-opacity:1;fill-rule:nonzero;stroke:none"
               d="m 0,0 c -0.121,0.136 0.502,0.304 0.263,0.569 -0.412,0.672 -0.883,1.188 -1.11,1.827 -0.236,0.24 0.267,0.94 0.017,1.173 -0.219,0.298 -0.703,0.77 -1.088,0.98 C -2.295,4.774 -2.553,4.793 -2.317,4.403 -1.589,3.184 -1.105,2.198 -0.51,0.787 -0.193,0.235 0.137,-0.326 0.522,-0.93 0.904,-1.513 1.325,-2.065 1.765,-2.616 1.994,-2.935 2.135,-3.274 2.319,-3.604 2.122,-3.147 1.948,-2.68 1.784,-2.163 1.621,-1.485 0.496,-1.028 0,0" />
          </g>
          <g
             id="g42220"
             transform="translate(584.2295,1431.6045)">
            <path
               inkscape:connector-curvature="0"
               id="path42218"
               style="fill:#ffffff;fill-opacity:1;fill-rule:nonzero;stroke:none"
               d="m 0,0 c -0.139,-0.066 -0.456,-0.194 -0.457,-0.18 -0.564,0.555 -1.15,0.624 -1.859,0.898 0.024,-0.143 0.055,-0.29 0.092,-0.442 0.384,-0.203 0.504,-0.044 0.268,0.253 0.487,-0.768 1.377,-1.113 2.221,-0.998 C 0.208,-0.297 0.208,-0.106 0,0" />
          </g>
          <g
             id="g42224"
             transform="translate(584.981,1431.2319)">
            <path
               inkscape:connector-curvature="0"
               id="path42222"
               style="fill:#ffffff;fill-opacity:1;fill-rule:nonzero;stroke:none"
               d="m 0,0 c -0.164,-0.032 -0.327,-0.065 -0.487,-0.097 l 0.02,-0.054 c 0.164,0.047 0.328,0.092 0.487,0.137 z" />
          </g>
          <g
             id="g42228"
             transform="translate(576.8271,1441.6357)">
            <path
               inkscape:connector-curvature="0"
               id="path42226"
               style="fill:#ffffff;fill-opacity:1;fill-rule:nonzero;stroke:none"
               d="M 0,0 C -0.458,0.987 -0.967,1.936 -1.668,2.728 -2.363,3.513 -3.217,4.177 -4.204,4.513 -4.394,4.455 -4.531,4.358 -4.715,4.466 -4.839,4.607 -4.983,4.711 -5.134,4.791 -5.428,4.882 -5.729,4.893 -6.027,4.928 -6.131,4.918 -6.238,4.907 -6.346,4.897 L -6.355,4.894 C -6.524,4.832 -6.471,4.729 -6.372,4.627 -6.261,4.552 -6.162,4.465 -6.082,4.375 -6.133,4.432 -6.275,4.528 -6.372,4.627 -6.508,4.724 -6.663,4.764 -6.846,4.795 -7.112,4.732 -7.391,4.718 -7.68,4.704 c 0.307,0.129 0.595,0.12 0.834,0.091 0.17,0.029 0.332,0.09 0.5,0.102 l 0.148,0.049 C -6.886,4.997 -7.572,4.967 -8.244,4.888 -8.396,4.846 -8.543,4.817 -8.654,4.766 -9.112,4.576 -9.562,4.402 -9.924,4.623 c -0.115,-0.024 -0.233,-0.047 -0.351,-0.071 0.027,-0.013 0.051,-0.025 0.081,-0.039 -0.056,0.006 -0.105,0.014 -0.145,0.025 -0.489,-0.107 -0.979,-0.214 -1.473,-0.322 -0.275,-0.204 -0.552,-0.441 -0.848,-0.62 0,0 -0.27,0.152 -0.404,0.227 -0.088,-0.19 -0.247,-0.341 -0.452,-0.45 0.306,-0.121 0.597,-0.265 0.854,-0.334 0.413,-0.224 0.548,0.826 1.094,0.347 -0.546,0.479 -0.681,-0.571 -1.094,-0.347 -0.257,0.069 -0.548,0.213 -0.854,0.334 -0.423,-0.221 -1.051,-0.252 -1.567,-0.008 0.527,0.359 1.054,0.217 1.567,0.008 0.205,0.109 0.364,0.26 0.452,0.45 0.134,-0.075 0.404,-0.227 0.404,-0.227 0.296,0.179 0.573,0.416 0.848,0.62 -0.949,-0.209 -1.901,-0.426 -2.853,-0.557 -1.536,-0.222 -2.981,-0.143 -4.144,0.413 -1.183,0.517 -2.021,1.561 -2.575,2.817 -0.553,1.261 -0.83,2.715 -0.924,4.209 -0.093,1.525 -0.04,3.167 -0.143,4.944 -0.11,1.912 -0.432,4.004 -1.512,5.896 -1.055,1.874 -2.635,3.349 -4.38,4.426 -1.734,1.078 -3.747,1.658 -5.662,1.839 -1.925,0.19 -3.791,0.036 -5.571,-0.237 -1.804,-0.287 -3.446,-0.646 -5.244,-1.053 -1.785,-0.418 -3.604,-0.897 -5.562,-1.51 -1.487,-0.485 -3.481,-1.679 -5.197,-3.436 -0.864,-0.856 -1.622,-1.897 -2.236,-2.914 -0.593,-1.049 -1.017,-2.092 -1.285,-2.968 -0.04,-0.634 -0.026,-1.145 0.077,-1.558 0.113,-0.417 0.266,-0.728 0.442,-0.959 0.351,-0.461 0.788,-0.603 1.212,-0.619 0.85,-0.012 1.65,0.396 1.738,0.453 1.314,0.841 1.806,1.413 2.408,2.265 0.589,0.812 1.405,1.889 3.263,2.535 -1.201,-0.505 -1.137,0.049 -0.317,0.848 0.826,0.778 2.539,1.565 4.02,1.354 2.154,-0.333 4.065,0.207 6.335,0.853 2.155,0.631 4.402,1.196 6.216,0.612 0.845,-0.279 1.775,-0.419 2.664,-0.909 1.072,-0.767 1.832,-1.592 2.265,-2.406 0.455,-0.793 0.776,-1.991 0.968,-3.618 0.216,-1.636 0.235,-3.545 0.678,-5.946 0.221,-1.154 0.547,-2.348 1.061,-3.58 0.508,-1.225 1.249,-2.52 2.369,-3.698 0.612,-0.605 1.319,-1.122 2.082,-1.47 0.373,-0.195 0.765,-0.306 1.147,-0.419 0.385,-0.1 0.761,-0.23 1.136,-0.248 1.53,-0.223 2.801,0.072 3.92,0.314 1.611,0.287 3.147,0.413 4.197,0.703 1.645,0.474 2.804,1.041 3.853,1.455 -1.215,-0.284 -2.143,-0.738 -3.781,-1.303 -1.116,-0.357 0.566,1.022 1.204,1.387 0.26,0.213 0.912,-0.345 1.151,-0.15 0.614,0.142 1.102,0.529 1.711,0.764 0.256,0.158 0.259,-0.489 0.377,-0.41 0.393,0.106 0.704,0.293 1.049,0.476 0.308,0.118 0.658,0.266 0.853,0.072 0.15,-0.113 0.294,-0.222 0.434,-0.327 0.129,-0.112 0.233,-0.247 0.342,-0.358 0.133,-0.153 0.281,-0.261 0.446,-0.393 0.13,-0.047 0.275,-0.089 0.408,-0.165 0.065,0.221 0.205,0.428 0.341,0.629 0.139,-0.195 0.26,-0.519 0.366,-0.73 C -2.571,1.75 -2.692,2.074 -2.831,2.269 -2.967,2.068 -3.107,1.861 -3.172,1.64 -2.168,1.186 -1.164,0.001 -0.411,-1.228 l 0.047,0.039 c -0.363,0.758 -0.615,1.487 -0.718,2.429 0.067,-0.397 -0.117,-0.438 -0.356,-0.102 0.041,0.149 0.066,0.292 0.098,0.442 0.559,-0.513 1.076,-1.146 0.926,-1.98 0,0 0.257,-0.243 0.384,-0.363 0.004,-0.256 -0.191,-0.319 -0.334,-0.426 0.072,-0.146 0.146,-0.295 0.22,-0.444 0.092,0.218 0.138,0.623 0.15,0.978 C 0.017,-0.303 0,0 0,0" />
          </g>
          <g
             id="g42232"
             transform="translate(569.9609,1446.4482)">
            <path
               inkscape:connector-curvature="0"
               id="path42230"
               style="fill:#ffffff;fill-opacity:1;fill-rule:nonzero;stroke:none"
               d="M 0,0 C 0.118,0.027 0.264,0.053 0.42,0.073 -0.147,0.076 -0.721,0.081 -1.285,0.007 -0.94,-0.252 -0.488,-0.099 0,0" />
          </g>
        </g>
      </g>
    </g>
    <g
       transform="matrix(0.35277777,0,0,-0.35277777,-417.80373,504.2015)"
       id="g42238">
      <g
         id="g42240" />
      <g
         id="g42288">
        <g
           style="opacity:0.85000598"
           id="g42286"
           clip-path="url(#clipPath42244)">
          <g
             id="g42248"
             transform="translate(698.6924,1397.1597)">
            <path
               inkscape:connector-curvature="0"
               id="path42246"
               style="fill:#ffffff;fill-opacity:1;fill-rule:nonzero;stroke:none"
               d="M 0,0 C -0.487,0.095 -0.98,0.184 -1.475,0.264 -1.232,0.182 -0.997,0.076 -0.763,-0.073 -0.453,-0.2 -0.263,-0.086 0,0" />
          </g>
          <g
             id="g42252"
             transform="translate(695.8477,1397.6406)">
            <path
               inkscape:connector-curvature="0"
               id="path42250"
               style="fill:#ffffff;fill-opacity:1;fill-rule:nonzero;stroke:none"
               d="M 0,0 C -0.09,0.013 -0.18,0.026 -0.263,0.039 -0.344,0.028 -0.423,0.018 -0.495,0.009 Z" />
          </g>
          <g
             id="g42256"
             transform="translate(693.2383,1397.7422)">
            <path
               inkscape:connector-curvature="0"
               id="path42254"
               style="fill:#ffffff;fill-opacity:1;fill-rule:nonzero;stroke:none"
               d="M 0,0 C 0.456,-0.066 0.896,-0.097 1.323,-0.096 0.954,-0.014 0.52,0.042 0,0" />
          </g>
          <g
             id="g42260"
             transform="translate(695.2852,1397.3843)">
            <path
               inkscape:connector-curvature="0"
               id="path42258"
               style="fill:#ffffff;fill-opacity:1;fill-rule:nonzero;stroke:none"
               d="M 0,0 C -0.147,0.115 -0.215,0.224 0.056,0.264 L 0.067,0.265 C -0.195,0.264 -0.455,0.263 -0.724,0.262 -0.448,0.197 -0.205,0.11 0,0" />
          </g>
          <g
             id="g42264"
             transform="translate(695.2852,1397.3843)">
            <path
               inkscape:connector-curvature="0"
               id="path42262"
               style="fill:#ffffff;fill-opacity:1;fill-rule:nonzero;stroke:none"
               d="M 0,0 C 0.143,-0.11 0.375,-0.227 0.451,-0.29 0.322,-0.188 0.171,-0.09 0,0" />
          </g>
          <g
             id="g42268"
             transform="translate(694.3984,1395.1865)">
            <path
               inkscape:connector-curvature="0"
               id="path42266"
               style="fill:#ffffff;fill-opacity:1;fill-rule:nonzero;stroke:none"
               d="M 0,0 C -0.259,-0.047 -0.135,0.589 -0.65,0.496 -1.844,0.425 -2.862,0.197 -3.957,0.242 -4.458,0.111 -5.229,0.859 -5.737,0.711 -6.932,0.567 -9.898,-0.415 -8.135,-0.316 c 2.637,0.153 4.358,0.268 6.739,0.208 1.946,0.1 3.842,0.17 5.858,0.055 C 5.02,-0.121 5.524,-0.273 6.033,-0.414 5.378,-0.188 4.704,0.052 3.944,0.269 2.948,0.621 1.595,-0.023 0,0" />
          </g>
          <g
             id="g42272"
             transform="translate(709.2344,1394.0488)">
            <path
               inkscape:connector-curvature="0"
               id="path42270"
               style="fill:#ffffff;fill-opacity:1;fill-rule:nonzero;stroke:none"
               d="M 0,0 C -0.267,0.015 -0.805,0.044 -0.805,0.044 -1.747,0.861 -2.979,1.036 -4.189,1.19 L -3.762,0.733 C -3.089,0.579 -2.959,0.729 -3.512,1.034 -2.265,0.27 -1.031,-0.193 0.269,-0.593 0.248,-0.399 0.333,-0.215 0,0" />
          </g>
          <g
             id="g42276"
             transform="translate(710.2705,1393.2354)">
            <path
               inkscape:connector-curvature="0"
               id="path42274"
               style="fill:#ffffff;fill-opacity:1;fill-rule:nonzero;stroke:none"
               d="M 0,0 C -0.257,0.074 -0.516,0.148 -0.768,0.221 -0.769,0.201 -0.762,0.18 -0.76,0.158 -0.497,0.097 -0.234,0.036 0.021,-0.024 Z" />
          </g>
          <g
             id="g42280"
             transform="translate(687.7236,1397.3667)">
            <path
               inkscape:connector-curvature="0"
               id="path42278"
               style="fill:#ffffff;fill-opacity:1;fill-rule:nonzero;stroke:none"
               d="m 0,0 c -3.431,-0.05 -6.648,-0.286 -9.786,-0.511 -0.23,-0.148 -0.385,-0.309 -0.715,-0.263 -0.255,0.089 -0.508,0.136 -0.757,0.16 -0.458,-0.032 -0.915,-0.063 -1.369,-0.094 -0.157,-0.032 -0.315,-0.063 -0.477,-0.095 l -0.013,-0.005 c -0.25,-0.096 -0.164,-0.189 0.003,-0.269 0.183,-0.051 0.353,-0.116 0.5,-0.188 -0.094,0.046 -0.337,0.11 -0.5,0.188 -0.223,0.062 -0.469,0.104 -0.753,0.115 -0.412,-0.077 -0.847,-0.138 -1.3,-0.14 0.494,0.12 0.925,0.158 1.3,0.14 0.261,0.054 0.512,0.106 0.763,0.159 0.072,0.026 0.142,0.051 0.216,0.078 -1.045,-0.06 -2.084,-0.119 -3.124,-0.179 -0.236,-0.038 -0.462,-0.075 -0.647,-0.104 -0.745,-0.141 -1.491,-0.279 -1.974,0.008 -0.182,-0.004 -0.37,-0.007 -0.556,-0.01 0.036,-0.017 0.071,-0.034 0.11,-0.052 -0.084,0.015 -0.154,0.032 -0.212,0.05 -0.783,-0.02 -1.567,-0.012 -2.354,-0.008 -0.504,-0.126 -1.028,-0.293 -1.555,-0.383 0,0 -0.352,0.219 -0.526,0.328 -0.214,-0.158 -0.522,-0.264 -0.881,-0.311 0.42,-0.201 0.805,-0.416 1.17,-0.552 0.538,-0.336 1.184,0.657 1.821,0.053 -0.637,0.604 -1.283,-0.389 -1.821,-0.053 -0.365,0.136 -0.75,0.351 -1.17,0.552 -0.747,-0.087 -1.712,0.066 -2.453,0.45 0.972,0.187 1.75,-0.096 2.453,-0.45 0.359,0.047 0.667,0.153 0.881,0.311 0.174,-0.109 0.526,-0.328 0.526,-0.328 0.527,0.09 1.051,0.257 1.555,0.383 -1.535,0.021 -3.081,0.098 -4.642,0.244 -5.009,0.534 -9.773,1.74 -13.897,4.133 -2.054,1.193 -3.893,2.729 -5.41,4.567 -1.52,1.834 -2.676,4.097 -4.057,6.447 -0.753,1.277 -1.552,2.562 -2.537,3.764 -0.983,1.206 -2.164,2.282 -3.427,3.188 -2.563,1.785 -5.462,2.854 -8.292,3.522 -1.763,0.425 -3.511,0.665 -5.221,0.816 l -0.641,0.052 -0.219,0.026 -0.447,0.043 -0.431,0.031 -0.212,0.013 -0.106,0.005 -0.052,0.003 c -0.002,0.014 0.005,0.036 0.007,0.054 0.062,0.332 0.101,0.648 0.115,0.973 l 0.006,0.247 0.003,0.122 -0.022,0.364 c -0.041,0.51 -0.047,1.024 -0.127,1.528 -0.239,2.029 -0.743,4.02 -1.481,5.942 -1.487,3.833 -3.877,7.461 -7.388,10.492 -0.993,0.801 -2.303,1.671 -3.848,2.341 -1.541,0.677 -3.289,1.196 -5.067,1.485 -3.566,0.617 -7.191,0.16 -9.558,-0.491 -1.539,-0.656 -2.346,-1.396 -2.722,-1.995 -0.377,-0.602 -0.337,-1.074 -0.135,-1.448 0.42,-0.741 1.427,-1.119 1.565,-1.148 1.97,-0.515 3.301,-0.46 5.086,-0.404 0.883,0.025 1.87,0.009 3.003,-0.168 1.131,-0.17 2.413,-0.562 3.75,-1.309 -0.917,0.486 -1.222,0.694 -1.031,0.827 0.187,0.13 0.845,0.085 1.731,-0.141 0.868,-0.266 1.973,-0.703 2.928,-1.417 0.956,-0.707 1.807,-1.577 2.241,-2.517 1.068,-2.288 2.394,-4.416 3.437,-6.976 0.517,-1.267 0.951,-2.619 1.191,-4.018 0.068,-0.348 0.092,-0.701 0.143,-1.053 l 0.017,-0.132 c 0.004,-0.054 -0.004,-0.193 -0.005,-0.285 l -0.019,-0.619 -0.038,-1.232 c -0.043,-0.829 -0.185,-1.714 -0.276,-2.563 -0.109,-0.834 -0.217,-1.666 -0.325,-2.494 2.15,-0.076 4.367,-0.083 6.503,-0.248 0.469,-0.029 0.939,-0.058 1.413,-0.088 0.248,-0.022 0.497,-0.044 0.748,-0.067 0.471,-0.037 0.95,-0.075 1.44,-0.114 0.969,-0.085 1.971,-0.178 2.98,-0.383 2.612,-0.648 4.853,-1.544 6.597,-2.804 0.887,-0.63 1.624,-1.324 2.373,-2.235 0.748,-0.91 1.48,-1.993 2.252,-3.2 0.777,-1.207 1.588,-2.529 2.573,-3.899 0.966,-1.364 2.18,-2.788 3.509,-3.987 2.652,-2.457 5.816,-4.265 9.144,-5.596 3.583,-1.35 6.93,-1.376 9.96,-1.379 2.207,-0.136 4.554,-0.505 6.314,-0.477 2.775,0.045 5.106,0.441 7.288,0.909 -2.461,-0.32 -4.275,-0.629 -7.113,-0.779 -1.89,-0.065 1.31,0.833 2.512,1.089 0.515,0.172 1.384,-0.504 1.9,-0.319 1.141,0.076 2.161,0.447 3.351,0.736 0.505,0.188 0.502,-0.46 0.755,-0.367 1.63,0.297 2.81,1.242 3.867,1.161 0.798,-0.02 1.516,-0.061 2.217,-0.098 0.44,0 0.874,0.005 1.333,0.067 0.283,0.073 0.575,0.149 0.867,0.224 -0.249,0.181 -0.351,0.416 -0.447,0.654 0.431,-0.008 1.045,-0.104 1.475,-0.117 -0.43,0.013 -1.044,0.109 -1.475,0.117 0.096,-0.238 0.198,-0.473 0.447,-0.654 2.098,0.526 4.536,0.97 6.834,1.2 l -0.03,0.058 c -1.344,-0.05 -2.643,0.007 -4.06,0.337 0.612,-0.121 0.542,-0.302 -0.145,-0.365 l -0.542,0.299 c 1.192,0.239 2.402,0.452 3.541,-0.013 0,0 0.516,0.141 0.771,0.211 0.381,-0.093 0.358,-0.295 0.435,-0.469 0.261,0.009 0.527,0.018 0.793,0.027 C 1.781,-0.419 0,0 0,0" />
          </g>
          <g
             id="g42284"
             transform="translate(673.8242,1396.4209)">
            <path
               inkscape:connector-curvature="0"
               id="path42282"
               style="fill:#ffffff;fill-opacity:1;fill-rule:nonzero;stroke:none"
               d="M 0,0 C 0.184,0.031 0.406,0.07 0.645,0.111 -0.229,0.064 -1.103,0.018 -1.98,-0.029 -1.492,-0.307 -0.746,-0.152 0,0" />
          </g>
        </g>
      </g>
    </g>
    <g
       transform="matrix(0.35277777,0,0,-0.35277777,-417.80373,504.2015)"
       id="g42290">
      <g
         id="g42292" />
      <g
         id="g42340">
        <g
           style="opacity:0.85000598"
           id="g42338"
           clip-path="url(#clipPath42296)">
          <g
             id="g42300"
             transform="translate(754.7373,1396.3188)">
            <path
               inkscape:connector-curvature="0"
               id="path42298"
               style="fill:#ffffff;fill-opacity:1;fill-rule:nonzero;stroke:none"
               d="M 0,0 C -0.48,0.052 -0.965,0.105 -1.448,0.158 -1.21,0.086 -0.975,-0.001 -0.737,-0.136 -0.428,-0.237 -0.249,-0.107 0,0" />
          </g>
          <g
             id="g42304"
             transform="translate(751.9531,1396.6484)">
            <path
               inkscape:connector-curvature="0"
               id="path42302"
               style="fill:#ffffff;fill-opacity:1;fill-rule:nonzero;stroke:none"
               d="M 0,0 C -0.087,0.011 -0.175,0.022 -0.256,0.033 -0.335,0.021 -0.412,0.009 -0.481,-0.002 Z" />
          </g>
          <g
             id="g42308"
             transform="translate(749.416,1396.7563)">
            <path
               inkscape:connector-curvature="0"
               id="path42306"
               style="fill:#ffffff;fill-opacity:1;fill-rule:nonzero;stroke:none"
               d="M 0,0 C 0.44,-0.092 0.869,-0.12 1.285,-0.119 0.927,-0.036 0.505,0.013 0,0" />
          </g>
          <g
             id="g42312"
             transform="translate(751.4072,1396.3804)">
            <path
               inkscape:connector-curvature="0"
               id="path42310"
               style="fill:#ffffff;fill-opacity:1;fill-rule:nonzero;stroke:none"
               d="m 0,0 c -0.145,0.111 -0.21,0.219 0.054,0.265 l 0.01,0.001 C -0.19,0.263 -0.443,0.26 -0.706,0.257 -0.437,0.192 -0.2,0.103 0,0" />
          </g>
          <g
             id="g42316"
             transform="translate(751.4072,1396.3804)">
            <path
               inkscape:connector-curvature="0"
               id="path42314"
               style="fill:#ffffff;fill-opacity:1;fill-rule:nonzero;stroke:none"
               d="M 0,0 C 0.141,-0.107 0.37,-0.219 0.446,-0.28 0.318,-0.181 0.169,-0.087 0,0" />
          </g>
          <g
             id="g42320"
             transform="translate(750.5254,1394.1782)">
            <path
               inkscape:connector-curvature="0"
               id="path42318"
               style="fill:#ffffff;fill-opacity:1;fill-rule:nonzero;stroke:none"
               d="M 0,0 C -0.267,-0.044 -0.135,0.589 -0.659,0.5 -1.871,0.466 -2.93,0.302 -4.05,0.439 -4.579,0.368 -5.281,1.193 -5.807,1.123 -7.022,1.09 -10.214,0.765 -8.409,0.499 -5.682,0.158 -3.887,0.096 -1.437,-0.076 0.573,-0.044 2.505,0.062 4.547,0.134 5.116,0.117 5.641,0.021 6.171,-0.065 5.481,0.087 4.776,0.242 3.999,0.413 2.977,0.669 1.648,-0.021 0,0" />
          </g>
          <g
             id="g42324"
             transform="translate(765.4346,1395.2695)">
            <path
               inkscape:connector-curvature="0"
               id="path42322"
               style="fill:#ffffff;fill-opacity:1;fill-rule:nonzero;stroke:none"
               d="m 0,0 c -0.255,-0.062 -0.771,-0.186 -0.771,-0.186 -1.113,0.504 -2.306,0.39 -3.505,0.273 0.168,-0.115 0.338,-0.233 0.509,-0.35 0.684,0.001 0.771,0.177 0.174,0.349 1.364,-0.472 2.675,-0.581 4.02,-0.57 C 0.35,-0.305 0.374,-0.104 0,0" />
          </g>
          <g
             id="g42328"
             transform="translate(766.6504,1394.8066)">
            <path
               inkscape:connector-curvature="0"
               id="path42326"
               style="fill:#ffffff;fill-opacity:1;fill-rule:nonzero;stroke:none"
               d="m 0,0 c -0.265,-0.007 -0.529,-0.014 -0.789,-0.021 0.005,-0.019 0.018,-0.037 0.026,-0.057 0.266,0.021 0.532,0.041 0.791,0.061 z" />
          </g>
          <g
             id="g42332"
             transform="translate(743.999,1396.8823)">
            <path
               inkscape:connector-curvature="0"
               id="path42330"
               style="fill:#ffffff;fill-opacity:1;fill-rule:nonzero;stroke:none"
               d="M 0,0 C -3.346,0.499 -6.479,1.087 -9.493,1.852 -9.754,1.781 -9.95,1.674 -10.247,1.817 c -0.212,0.162 -0.432,0.295 -0.656,0.398 -0.438,0.12 -0.874,0.241 -1.308,0.361 -0.156,0.022 -0.315,0.044 -0.477,0.067 h -0.013 c -0.265,-0.01 -0.217,-0.124 -0.088,-0.255 0.154,-0.108 0.291,-0.225 0.404,-0.342 -0.072,0.075 -0.277,0.215 -0.404,0.342 -0.188,0.132 -0.402,0.252 -0.663,0.354 -0.41,0.069 -0.832,0.167 -1.253,0.323 0.499,-0.06 0.91,-0.179 1.253,-0.323 0.261,-0.034 0.513,-0.067 0.764,-0.099 0.076,0.001 0.151,0.002 0.229,0.003 -1.001,0.264 -1.979,0.588 -2.961,0.896 -0.233,0.045 -0.455,0.088 -0.638,0.125 -0.745,0.108 -1.475,0.27 -1.823,0.702 -0.171,0.061 -0.346,0.123 -0.519,0.185 l 0.083,-0.087 c -0.073,0.043 -0.131,0.084 -0.179,0.12 -0.733,0.255 -1.464,0.518 -2.189,0.814 -0.514,0.053 -1.056,0.082 -1.581,0.17 0,0 -0.256,0.319 -0.383,0.477 -0.257,-0.085 -0.575,-0.068 -0.925,0.01 0.322,-0.337 0.607,-0.675 0.903,-0.914 0.391,-0.481 1.328,0.217 1.713,-0.564 -0.385,0.781 -1.322,0.083 -1.713,0.564 -0.296,0.239 -0.581,0.577 -0.903,0.914 -0.73,0.163 -1.581,0.622 -2.176,1.193 0.99,-0.096 1.634,-0.632 2.176,-1.193 0.35,-0.078 0.668,-0.095 0.925,-0.01 0.127,-0.158 0.383,-0.477 0.383,-0.477 0.525,-0.088 1.067,-0.117 1.581,-0.17 -0.708,0.28 -1.419,0.561 -2.137,0.845 -0.707,0.307 -1.419,0.617 -2.14,0.93 -4.624,2.019 -8.79,4.501 -13.415,6.544 -4.609,2.085 -9.792,3.255 -15.222,3.44 -5.904,0.265 -11.545,-0.394 -16.961,-1.19 -5.414,-0.791 -10.39,-2.153 -15.365,-3.195 -2.485,-0.503 -4.977,-0.957 -7.497,-1.183 -2.553,-0.261 -5.019,-0.305 -7.076,0.326 -0.777,0.221 -1.619,0.5 -2.297,0.854 -0.335,0.182 -0.64,0.366 -0.885,0.59 -0.259,0.209 -0.463,0.435 -0.745,0.818 -0.556,0.738 -1.182,1.942 -1.875,3.208 -0.688,1.256 -1.52,2.658 -2.643,3.834 -0.215,0.176 -0.415,0.336 -0.623,0.483 -0.23,0.148 -0.452,0.281 -0.664,0.399 -0.402,0.243 -0.876,0.397 -1.255,0.518 -0.786,0.215 -1.439,0.219 -1.884,0.117 -0.912,-0.23 -1.142,-0.667 -1.151,-1.089 -0.002,-0.427 0.206,-0.865 0.374,-1.203 0.177,-0.326 0.322,-0.589 0.366,-0.656 0.588,-0.828 0.811,-1.493 1.097,-2.151 0.276,-0.655 0.589,-1.314 0.964,-2.126 0.389,-0.872 0.82,-1.837 1.329,-2.978 0.282,-0.607 0.573,-1.276 1.007,-2.031 0.424,-0.743 0.989,-1.615 1.78,-2.417 -1.064,1.106 -1.147,1.63 -0.91,1.558 0.268,-0.042 0.926,-0.621 1.932,-1.239 0.999,-0.63 2.348,-1.246 3.749,-1.704 1.4,-0.456 2.84,-0.8 4.051,-1.196 7.25,-2.201 15.802,2.036 23.388,3.241 1.908,0.294 3.859,0.887 6.077,1.311 5.813,0.86 11.197,1.667 16.556,1.665 l 1.992,-0.098 1.001,-0.047 0.986,-0.132 c 0.659,-0.089 1.32,-0.177 1.984,-0.267 0.65,-0.149 1.301,-0.298 1.955,-0.448 2.605,-0.585 5.209,-1.714 7.966,-3.075 2.931,-1.402 5.928,-2.263 8.745,-3.075 1.99,-0.73 3.987,-1.849 5.622,-2.407 1.276,-0.464 2.494,-0.791 3.666,-1.057 1.167,-0.287 2.299,-0.461 3.405,-0.625 -1.209,0.277 -2.265,0.492 -3.342,0.773 -1.082,0.266 -2.2,0.539 -3.524,0.972 -1.755,0.592 1.483,0.32 2.695,0.153 0.538,-0.018 1.103,-0.949 1.646,-0.968 1.084,-0.34 2.173,-0.32 3.385,-0.479 0.538,0 0.312,-0.613 0.584,-0.606 1.65,-0.252 3.068,0.217 4.055,-0.167 0.754,-0.274 1.439,-0.522 2.106,-0.765 0.427,-0.135 0.856,-0.237 1.322,-0.303 0.296,-0.004 0.604,-0.007 0.91,-0.01 -0.198,0.239 -0.236,0.492 -0.268,0.746 0.418,-0.116 0.99,-0.372 1.409,-0.489 -0.419,0.117 -0.991,0.373 -1.409,0.489 0.032,-0.254 0.07,-0.507 0.268,-0.746 2.202,-0.047 4.705,-0.1 7.024,-0.149 L 1.4,-0.995 c -1.342,0.118 -2.636,0.375 -3.945,1.002 0.571,-0.24 0.47,-0.404 -0.217,-0.329 l -0.466,0.405 c 1.215,-0.01 2.412,-0.053 3.466,-0.661 0,0 0.529,0.071 0.79,0.106 C 1.391,-0.615 1.345,-0.812 1.4,-0.995 1.661,-1.016 1.927,-1.036 2.193,-1.057 1.68,-0.659 0,0 0,0" />
          </g>
          <g
             id="g42336"
             transform="translate(730.5215,1399.6504)">
            <path
               inkscape:connector-curvature="0"
               id="path42334"
               style="fill:#ffffff;fill-opacity:1;fill-rule:nonzero;stroke:none"
               d="M 0,0 C 0.182,-0.03 0.402,-0.067 0.639,-0.106 -0.197,0.119 -1.016,0.405 -1.845,0.662 -1.488,0.237 -0.744,0.116 0,0" />
          </g>
        </g>
      </g>
    </g>
  </g>
</svg>
