<?xml version="1.0" encoding="UTF-8" standalone="no"?>
<svg
   xmlns:dc="http://purl.org/dc/elements/1.1/"
   xmlns:cc="http://creativecommons.org/ns#"
   xmlns:rdf="http://www.w3.org/1999/02/22-rdf-syntax-ns#"
   xmlns:svg="http://www.w3.org/2000/svg"
   xmlns="http://www.w3.org/2000/svg"
   id="svg22963"
   version="1.1"
   viewBox="0 0 54.843079 31.586073"
   height="31.586073mm"
   width="54.843079mm">
  <defs
     id="defs22957">
    <clipPath
       id="clipPath29288"
       clipPathUnits="userSpaceOnUse">
      <path
         id="path29286"
         d="M 50.7531,1045.13 H 206.214 v -40.6 H 50.7531 Z" />
    </clipPath>
    <clipPath
       id="clipPath29340"
       clipPathUnits="userSpaceOnUse">
      <path
         id="path29338"
         d="M 54.1215,992.958 H 194.351 V 955.593 H 54.1215 Z" />
    </clipPath>
    <clipPath
       id="clipPath29704"
       clipPathUnits="userSpaceOnUse">
      <path
         id="path29702"
         d="M 66.2876,989.064 H 135.032 V 971.102 H 66.2876 Z" />
    </clipPath>
  </defs>
  <metadata
     id="metadata22960">
    <rdf:RDF>
      <cc:Work
         rdf:about="">
        <dc:format>image/svg+xml</dc:format>
        <dc:type
           rdf:resource="http://purl.org/dc/dcmitype/StillImage" />
        <dc:title></dc:title>
      </cc:Work>
    </rdf:RDF>
  </metadata>
  <g
     transform="translate(168.78463,9.0787473)"
     id="layer1">
    <g
       id="g29282"
       transform="matrix(0.35277777,0,0,-0.35277777,-186.6892,359.61941)">
      <g
         id="g29284" />
      <g
         id="g29332">
        <g
           clip-path="url(#clipPath29288)"
           id="g29330"
           style="opacity:0.85000598">
          <g
             transform="translate(191.9448,1007.5889)"
             id="g29292">
            <path
               d="M 0,0 C -0.556,0.246 -1.117,0.494 -1.678,0.742 -1.411,0.579 -1.157,0.393 -0.914,0.167 -0.574,-0.056 -0.325,-0.005 0,0"
               style="fill:#ffffff;fill-opacity:1;fill-rule:nonzero;stroke:none"
               id="path29290" />
          </g>
          <g
             transform="translate(188.7021,1009.0259)"
             id="g29296">
            <path
               d="m 0,0 c -0.103,0.045 -0.206,0.09 -0.302,0.132 -0.1,0.019 -0.197,0.037 -0.284,0.053 z"
               style="fill:#ffffff;fill-opacity:1;fill-rule:nonzero;stroke:none"
               id="path29294" />
          </g>
          <g
             transform="translate(185.5991,1010.0381)"
             id="g29300">
            <path
               d="M 0,0 C 0.538,-0.22 1.062,-0.392 1.573,-0.547 1.153,-0.331 0.638,-0.136 0,0"
               style="fill:#ffffff;fill-opacity:1;fill-rule:nonzero;stroke:none"
               id="path29298" />
          </g>
          <g
             transform="translate(187.9712,1008.9766)"
             id="g29304">
            <path
               d="m 0,0 c -0.148,0.164 -0.202,0.293 0.131,0.237 0,0 0.008,-0.001 0.014,-0.003 C -0.168,0.327 -0.478,0.419 -0.799,0.515 -0.484,0.354 -0.217,0.178 0,0"
               style="fill:#ffffff;fill-opacity:1;fill-rule:nonzero;stroke:none"
               id="path29302" />
          </g>
          <g
             transform="translate(187.9712,1008.9766)"
             id="g29308">
            <path
               d="M 0,0 C 0.144,-0.158 0.393,-0.353 0.468,-0.442 0.34,-0.296 0.183,-0.148 0,0"
               style="fill:#ffffff;fill-opacity:1;fill-rule:nonzero;stroke:none"
               id="path29306" />
          </g>
          <g
             transform="translate(186.3848,1007.1533)"
             id="g29312">
            <path
               d="M 0,0 C -0.318,0.043 -0.018,0.629 -0.652,0.707 -2.086,1.038 -3.325,1.117 -4.581,1.364 -5.167,1.352 -5.985,2.166 -6.601,2.072 -7.997,2.034 -11.606,0.833 -9.453,1.036 -7.838,1.194 -6.647,1.223 -5.447,1.113 -4.245,1.006 -3.056,0.772 -1.671,0.361 0.635,-0.151 2.926,-0.877 5.402,-1.63 6.083,-1.87 6.701,-2.167 7.342,-2.434 6.52,-2.042 5.707,-1.613 4.822,-1.141 3.676,-0.479 1.897,-0.587 0,0"
               style="fill:#ffffff;fill-opacity:1;fill-rule:nonzero;stroke:none"
               id="path29310" />
          </g>
          <g
             transform="translate(204.6216,1005.4321)"
             id="g29316">
            <path
               d="m 0,0 c -0.264,-0.16 -0.838,-0.45 -0.838,-0.45 -1.443,0.177 -2.81,-0.057 -4.308,-0.073 0.201,-0.137 0.411,-0.252 0.627,-0.377 0.859,-0.015 0.949,0.18 0.214,0.344 1.676,-0.488 3.415,-0.359 4.972,0.294 C 0.508,-0.132 0.456,0.064 0,0"
               style="fill:#ffffff;fill-opacity:1;fill-rule:nonzero;stroke:none"
               id="path29314" />
          </g>
          <g
             transform="translate(206.1748,1005.6045)"
             id="g29320">
            <path
               d="m 0,0 c -0.294,-0.146 -0.583,-0.316 -0.886,-0.435 0.013,-0.014 0.034,-0.026 0.053,-0.04 0.303,0.144 0.588,0.323 0.872,0.475 z"
               style="fill:#ffffff;fill-opacity:1;fill-rule:nonzero;stroke:none"
               id="path29318" />
          </g>
          <g
             transform="translate(178.686,1010.7217)"
             id="g29324">
            <path
               d="m 0,0 c -2.155,-0.006 -4.213,-0.303 -6.227,-0.411 -2.006,-0.125 -4.002,-0.039 -5.808,0.593 -0.311,-0.012 -0.569,-0.08 -0.91,0.146 -0.23,0.227 -0.465,0.427 -0.701,0.613 -0.481,0.282 -0.94,0.604 -1.384,0.944 -0.166,0.103 -0.336,0.209 -0.507,0.316 l -0.015,0.007 c -0.297,0.138 -0.283,0.002 -0.185,-0.195 0.134,-0.189 0.25,-0.376 0.341,-0.549 -0.059,0.11 -0.244,0.357 -0.341,0.549 -0.164,0.229 -0.359,0.465 -0.61,0.712 -0.432,0.294 -0.871,0.62 -1.295,0.997 0.544,-0.327 0.964,-0.669 1.295,-0.997 0.277,-0.179 0.543,-0.351 0.81,-0.524 0.084,-0.039 0.167,-0.078 0.255,-0.119 -1.015,0.795 -1.974,1.678 -3.04,2.476 -0.261,0.161 -0.506,0.322 -0.729,0.419 -0.446,0.203 -0.874,0.422 -1.259,0.624 -0.395,0.182 -0.725,0.391 -0.943,0.658 -0.213,0.111 -0.446,0.183 -0.674,0.266 l 0.114,-0.097 c -0.096,0.051 -0.176,0.099 -0.239,0.141 -0.481,0.172 -0.963,0.347 -1.465,0.449 -0.497,0.125 -0.998,0.247 -1.51,0.301 -0.676,-0.022 -1.36,-0.154 -2.03,-0.243 0,0 -0.455,0.229 -0.688,0.306 -0.27,-0.18 -0.652,-0.315 -1.1,-0.401 0.562,-0.155 1.054,-0.326 1.501,-0.438 0.63,-0.337 1.503,0.642 2.224,-0.084 -0.721,0.726 -1.594,-0.253 -2.224,0.084 -0.447,0.112 -0.939,0.283 -1.501,0.438 -0.464,-0.122 -0.995,-0.214 -1.547,-0.25 -0.542,-0.086 -1.11,-0.105 -1.639,-0.1 0.561,0.302 1.132,0.447 1.668,0.495 0.544,0.014 1.052,-0.045 1.518,-0.145 0.448,0.086 0.83,0.221 1.1,0.401 0.233,-0.077 0.688,-0.306 0.688,-0.306 0.67,0.089 1.354,0.221 2.03,0.243 -1.988,0.298 -4.054,0.228 -6.095,-0.22 C -33.114,6.67 -35.019,5.883 -36.705,4.767 -37.12,4.479 -37.551,4.213 -37.925,3.87 L -38.431,3.443 C -38.573,3.335 -38.692,3.205 -38.814,3.079 -39.05,2.82 -39.318,2.594 -39.513,2.311 l -0.311,-0.405 -0.155,-0.201 c -0.052,-0.019 -0.108,0.114 -0.162,0.164 l -0.379,0.486 c -0.133,0.155 -0.304,0.27 -0.453,0.406 -0.15,0.136 -0.307,0.261 -0.489,0.346 l -0.288,0.164 c -0.127,0.068 -0.276,0.155 -0.417,0.218 -1.163,0.454 -2.36,0.723 -3.51,0.804 -2.316,0.211 -4.503,0.02 -6.637,0.051 -2.118,0.011 -4.223,0.193 -5.876,1.095 -1.697,0.845 -2.832,2.448 -3.471,4.44 -0.992,3.135 -1.017,6.675 -1.582,10.27 -0.286,1.805 -0.699,3.682 -1.591,5.521 -0.874,1.832 -2.366,3.566 -4.225,4.649 -1.837,1.095 -3.773,1.558 -5.537,1.863 -1.794,0.292 -3.389,0.434 -5.022,0.622 -3.259,0.338 -6.483,0.673 -9.712,1.008 -3.245,0.333 -6.636,0.702 -10.258,0.566 -3.642,-0.149 -7.311,-0.832 -10.982,-2.003 -2.812,-0.908 -6.567,-3.007 -9.657,-5.87 -1.584,-1.384 -2.952,-2.989 -4.154,-4.496 -0.563,-0.786 -1.108,-1.533 -1.577,-2.255 -0.445,-0.741 -0.873,-1.417 -1.223,-2.043 -0.335,-0.918 -0.563,-1.672 -0.675,-2.305 -0.09,-0.644 -0.097,-1.15 -0.043,-1.543 0.107,-0.787 0.451,-1.129 0.859,-1.25 0.822,-0.23 1.885,0.376 2.018,0.484 1.911,1.414 2.987,2.774 4.447,4.539 1.442,1.726 3.334,3.909 6.894,5.753 -2.333,-1.363 -1.856,-0.437 -0.004,1.039 0.935,0.713 2.235,1.507 3.667,2.076 0.716,0.284 1.445,0.548 2.184,0.691 0.364,0.082 0.723,0.153 1.07,0.211 0.355,0.039 0.701,0.055 1.03,0.063 3.854,0.077 7.681,0.398 12.505,0.14 2.377,-0.109 4.985,-0.271 7.525,-0.441 2.547,-0.179 5.069,-0.409 7.482,-0.791 2.402,-0.373 4.759,-0.491 6.276,-1.364 0.903,-0.595 1.456,-1.349 1.961,-2.467 0.5,-1.113 0.839,-2.613 1.115,-4.261 0.279,-1.662 0.488,-3.475 0.834,-5.437 0.355,-1.952 0.803,-4.087 1.898,-6.342 1.05,-2.226 3.069,-4.581 5.597,-5.702 2.516,-1.219 4.997,-1.418 7.122,-1.457 2.145,-0.025 4.091,0.142 5.83,0.146 l 1.245,-0.027 c 0.358,-0.047 0.764,-0.058 1.087,-0.121 0.3,-0.075 0.668,-0.105 0.876,-0.216 l 0.366,-0.121 c 0.06,-0.038 0.04,-0.04 0.17,-0.103 0.126,-0.05 0.33,-0.167 0.509,-0.386 1.221,-1.473 2.412,-2.909 3.562,-4.296 l 0.332,0.426 0.348,0.502 0.685,0.998 c 0.444,0.658 0.896,1.315 1.355,1.964 0.461,0.623 0.87,1.333 1.34,1.846 0.081,0.121 0.31,0.309 0.371,0.382 l 0.143,0.165 0.282,0.332 c 0.816,0.828 1.737,1.573 2.767,2.15 1.967,0.925 4.36,0.917 6.029,0.786 1.334,-0.098 2.536,-0.346 3.652,-0.682 0.276,-0.093 0.55,-0.186 0.82,-0.278 0.259,-0.115 0.516,-0.231 0.771,-0.344 0.516,-0.203 1.034,-0.526 1.581,-0.85 -0.581,0.404 -1.091,0.756 -1.591,0.973 -0.251,0.119 -0.485,0.257 -0.737,0.361 l -0.77,0.28 c -1.048,0.318 -2.155,0.605 -3.547,0.646 -0.921,0.02 -0.605,0.239 0.139,0.408 0.741,0.177 1.933,0.225 2.582,0.106 0.285,-0.022 0.592,-0.256 0.868,-0.51 0.268,-0.279 0.518,-0.545 0.794,-0.585 0.517,-0.267 1.016,-0.469 1.568,-0.717 0.547,-0.261 1.133,-0.567 1.767,-0.959 0.587,-0.285 0.131,-0.748 0.429,-0.894 0.867,-0.602 1.828,-1.015 2.719,-1.323 0.896,-0.318 1.725,-0.505 2.401,-0.838 1.05,-0.459 2.048,-0.735 3.015,-0.933 0.613,-0.084 1.219,-0.139 1.852,-0.111 0.388,0.062 0.79,0.122 1.181,0.197 -0.32,0.178 -0.445,0.424 -0.554,0.662 0.561,-0.023 1.351,-0.112 1.902,-0.103 -0.551,-0.009 -1.341,0.08 -1.902,0.103 0.109,-0.238 0.234,-0.484 0.554,-0.662 2.804,0.514 5.72,1.379 8.512,1.332 l -0.03,0.06 c -1.623,0.116 -3.216,0.089 -4.998,0.329 0.766,-0.08 0.685,-0.266 -0.167,-0.375 -0.229,0.087 -0.46,0.175 -0.687,0.262 1.471,0.314 2.989,0.63 4.394,0.13 0,0 0.638,0.126 0.961,0.168 C 1.821,-0.507 1.776,-0.706 1.854,-0.887 2.171,-0.914 2.493,-0.941 2.816,-0.969 2.508,-0.756 1.822,-0.474 1.192,-0.283 0.562,-0.106 0,0 0,0"
               style="fill:#ffffff;fill-opacity:1;fill-rule:nonzero;stroke:none"
               id="path29322" />
          </g>
          <g
             transform="translate(162.3208,1013.4854)"
             id="g29328">
            <path
               d="M 0,0 C 0.189,-0.131 0.42,-0.29 0.667,-0.46 -0.172,0.225 -0.986,0.958 -1.874,1.635 -1.578,1.041 -0.792,0.526 0,0"
               style="fill:#ffffff;fill-opacity:1;fill-rule:nonzero;stroke:none"
               id="path29326" />
          </g>
        </g>
      </g>
    </g>
    <g
       id="g29334"
       transform="matrix(0.35277777,0,0,-0.35277777,-186.6892,359.61941)">
      <g
         id="g29336" />
      <g
         id="g29384">
        <g
           clip-path="url(#clipPath29340)"
           id="g29382"
           style="opacity:0.85000598">
          <g
             transform="translate(179.4448,987.4648)"
             id="g29344">
            <path
               d="m 0,0 c -0.556,-0.357 -1.048,-0.812 -1.529,-1.27 0.258,0.214 0.567,0.374 0.882,0.516 0.352,0.24 0.462,0.45 0.647,0.754"
               style="fill:#ffffff;fill-opacity:1;fill-rule:nonzero;stroke:none"
               id="path29342" />
          </g>
          <g
             transform="translate(176.7778,984.9097)"
             id="g29348">
            <path
               d="m 0,0 c -0.069,-0.077 -0.138,-0.155 -0.202,-0.227 -0.043,-0.08 -0.086,-0.158 -0.124,-0.229 z"
               style="fill:#ffffff;fill-opacity:1;fill-rule:nonzero;stroke:none"
               id="path29346" />
          </g>
          <g
             transform="translate(174.8149,983.1133)"
             id="g29352">
            <path
               d="M 0,0 C 0.441,0.134 0.806,0.362 1.105,0.689 0.781,0.462 0.446,0.259 0,0"
               style="fill:#ffffff;fill-opacity:1;fill-rule:nonzero;stroke:none"
               id="path29350" />
          </g>
          <g
             transform="translate(176.6255,984.2417)"
             id="g29356">
            <path
               d="m 0,0 c -0.193,-0.068 -0.322,-0.06 -0.18,0.202 0,0 0.004,0.006 0.007,0.01 -0.17,-0.234 -0.34,-0.452 -0.533,-0.651 C -0.463,-0.278 -0.225,-0.127 0,0"
               style="fill:#ffffff;fill-opacity:1;fill-rule:nonzero;stroke:none"
               id="path29354" />
          </g>
          <g
             transform="translate(176.6255,984.2417)"
             id="g29360">
            <path
               d="M 0,0 C 0.186,0.066 0.439,0.229 0.544,0.271 0.372,0.199 0.189,0.105 0,0"
               style="fill:#ffffff;fill-opacity:1;fill-rule:nonzero;stroke:none"
               id="path29358" />
          </g>
          <g
             transform="translate(177.6367,982.0303)"
             id="g29364">
            <path
               d="m 0,0 c -0.273,-0.319 -0.578,0.221 -1.151,-0.331 -1.577,-1.143 -3.242,-1.398 -4.64,-1.388 -0.654,-0.131 -1.584,0.618 -2.131,0.435 -0.322,-0.062 -0.745,-0.194 -1.077,-0.396 -0.355,-0.182 -0.544,-0.461 -0.688,-0.671 -0.23,-0.482 -0.151,-0.713 0.194,-0.382 0.471,0.455 1.532,0.605 2.816,0.637 1.27,0.081 2.775,-0.072 4.762,0.664 0.782,0.351 1.515,0.902 2.012,1.472 0.508,0.566 0.872,1.128 1.198,1.633 0.333,0.505 0.6,0.964 0.947,1.34 0.324,0.41 0.717,0.771 1.151,1.106 C 3.904,4.458 4.456,4.653 5.021,4.798 4.271,4.646 3.509,4.411 2.75,3.969 2.484,3.845 2.251,3.644 2.062,3.376 1.856,3.123 1.684,2.839 1.526,2.488 1.188,1.809 0.888,0.923 0,0"
               style="fill:#ffffff;fill-opacity:1;fill-rule:nonzero;stroke:none"
               id="path29362" />
          </g>
          <g
             transform="translate(192.9062,988.4404)"
             id="g29368">
            <path
               d="M 0,0 C -0.322,-0.015 -0.97,-0.046 -0.97,-0.046 -2.279,0.648 -3.815,0.661 -5.31,0.525 -5.096,0.41 -4.881,0.304 -4.667,0.176 -3.828,0.153 -3.708,0.325 -4.453,0.52 -2.752,0.01 -1.189,-0.305 0.452,-0.561 0.385,-0.369 0.445,-0.175 0,0"
               style="fill:#ffffff;fill-opacity:1;fill-rule:nonzero;stroke:none"
               id="path29366" />
          </g>
          <g
             transform="translate(194.3198,987.7363)"
             id="g29372">
            <path
               d="m 0,0 c -0.322,0.048 -0.646,0.096 -0.961,0.144 0.003,-0.02 0.015,-0.041 0.023,-0.062 0.326,-0.035 0.651,-0.07 0.969,-0.104 z"
               style="fill:#ffffff;fill-opacity:1;fill-rule:nonzero;stroke:none"
               id="path29370" />
          </g>
          <g
             transform="translate(168.4536,982.0601)"
             id="g29376">
            <path
               d="m 0,0 c -1.056,-0.22 -2.046,-0.82 -2.675,-1.664 -0.652,-0.822 -1.083,-1.743 -1.598,-2.571 -0.249,-0.421 -0.564,-0.783 -0.857,-1.16 -0.338,-0.337 -0.655,-0.693 -1.043,-0.968 -0.732,-0.6 -1.574,-1.045 -2.447,-1.367 -0.225,-0.208 -0.364,-0.452 -0.769,-0.473 -0.319,0.037 -0.617,0.015 -0.911,0.008 -0.538,-0.089 -1.076,-0.153 -1.615,-0.157 -0.186,-0.033 -0.376,-0.048 -0.57,-0.056 l -0.016,-0.003 c -0.307,-0.063 -0.223,-0.166 -0.031,-0.267 0.208,-0.082 0.408,-0.159 0.593,-0.232 -0.113,0.038 -0.406,0.128 -0.593,0.232 -0.261,0.101 -0.549,0.14 -0.878,0.235 -0.25,0.014 -0.507,0.031 -0.767,0.06 -0.256,0.055 -0.515,0.121 -0.773,0.202 0.303,-0.031 0.576,-0.083 0.83,-0.133 0.257,-0.031 0.493,-0.075 0.71,-0.129 0.316,-0.031 0.623,0.025 0.925,0.035 0.087,0.016 0.173,0.032 0.263,0.049 -1.236,0.008 -2.457,0.262 -3.569,0.736 -0.264,0.059 -0.546,0.23 -0.763,0.303 -0.448,0.149 -0.862,0.427 -1.234,0.672 -0.358,0.276 -0.649,0.615 -0.92,1.034 l -0.016,0.019 c -0.05,0.055 -0.087,-0.049 -0.13,-0.081 l -0.126,-0.142 -0.256,-0.285 c 0.036,0.012 0.074,0.032 0.111,0.041 -0.079,-0.063 -0.147,-0.11 -0.204,-0.146 -0.341,-0.417 -0.763,-0.775 -1.163,-1.16 -0.178,-0.186 -0.451,-0.388 -0.633,-0.511 l -0.561,-0.395 c -0.438,-0.402 -0.882,-0.881 -1.429,-1.209 0,0 -0.47,0.009 -0.697,0.036 -0.176,-0.233 -0.484,-0.455 -0.873,-0.651 0.532,-0.002 1.072,-0.08 1.531,0.002 0.363,-0.002 0.646,0.29 0.917,0.583 0.268,0.31 0.549,0.574 1.046,0.529 -0.497,0.045 -0.778,-0.219 -1.046,-0.529 -0.271,-0.293 -0.554,-0.585 -0.917,-0.583 -0.459,-0.082 -0.999,-0.004 -1.531,-0.002 -0.823,-0.36 -2.017,-0.5 -2.949,-0.224 0.556,0.147 1.051,0.274 1.541,0.262 0.481,0.036 0.95,0.002 1.408,-0.038 0.389,0.196 0.697,0.418 0.873,0.651 0.227,-0.027 0.697,-0.036 0.697,-0.036 0.547,0.328 0.991,0.807 1.429,1.209 -1.515,-0.946 -3.267,-1.527 -5.085,-1.737 -2.926,-0.314 -5.887,0.377 -8.115,2.006 -1.107,0.786 -2.045,1.912 -3.079,3.049 -1.035,1.128 -2.176,2.36 -3.791,3.176 -1.601,0.824 -3.62,0.963 -5.313,0.418 -1.715,-0.51 -3.138,-1.456 -4.432,-2.451 -1.288,-1.002 -2.464,-2.124 -3.615,-3.155 -1.158,-1.034 -2.369,-2.035 -3.634,-2.999 -2.749,-2.082 -5.617,-3.88 -8.56,-5.403 -2.948,-1.523 -5.948,-2.788 -8.97,-3.622 -2.765,-0.761 -5.483,-1.239 -8.117,-1.29 -1.316,-0.014 -2.608,0.081 -3.864,0.298 -1.271,0.207 -2.4,0.562 -3.538,1.079 -2.253,1 -4.262,2.625 -5.635,4.59 -0.697,0.977 -1.176,2.064 -1.455,3.151 l -0.109,0.409 -0.065,0.473 -0.062,0.472 -0.015,0.119 -0.004,0.253 -0.004,0.527 c -0.038,1.413 0.037,2.872 0.073,4.344 -1.006,0.12 -2.022,0.24 -3.047,0.361 -0.515,0.094 -1.031,0.187 -1.55,0.282 -0.05,0.011 -0.028,0 -0.137,0.029 l -0.136,0.036 c -0.026,0.007 -0.015,0.006 -0.025,0.01 l -0.057,0.033 -0.115,0.065 -0.227,0.125 c -0.703,0.417 -1.534,0.994 -2.253,1.777 -0.717,0.775 -1.317,1.74 -1.567,2.707 -0.281,0.952 -0.259,2.057 -0.017,3.07 0.265,1.006 0.714,1.898 1.195,2.493 0.444,0.962 0.769,1.62 0.894,2.204 0.141,0.554 0.07,1.042 -0.151,1.401 -0.407,0.734 -1.579,0.921 -1.754,0.862 -2.378,-0.22 -4.124,-1.831 -5.23,-4.24 -0.552,-1.224 -0.969,-2.696 -1.06,-4.508 -0.105,-1.798 0.178,-4.013 1.268,-6.364 -0.747,1.603 -0.674,2.212 -0.46,2.027 0.247,-0.167 0.74,-1.068 1.593,-2.168 0.839,-1.113 2.075,-2.391 3.579,-3.459 0.753,-0.527 1.557,-1.031 2.399,-1.431 l 0.312,-0.158 c -0.068,0.004 0.049,-0.046 0.061,-0.067 0.073,-0.057 0.14,-0.113 0.198,-0.17 0.118,-0.103 0.206,-0.209 0.256,-0.307 0.029,-0.062 0.051,-0.121 0.071,-0.176 -0.078,-0.236 -0.225,-0.49 -0.307,-0.659 l -0.119,-0.236 -0.055,-0.097 c -0.011,-0.054 0.021,-0.276 0.031,-0.407 0.073,-1.175 0.463,-2.63 1.027,-3.905 1.132,-2.614 3.097,-4.873 5.406,-6.629 2.342,-1.727 5.041,-3.007 7.926,-3.664 2.839,-0.673 5.612,-0.769 8.273,-0.729 2.732,0.077 5.52,0.779 8.481,1.736 3.907,1.111 7.432,2.784 10.729,4.692 3.308,1.924 6.41,4.154 9.307,6.651 0.725,0.623 1.439,1.262 2.137,1.92 0.702,0.652 1.404,1.352 2.009,1.941 1.232,1.208 2.43,2.276 3.521,2.911 0.541,0.318 1.031,0.514 1.419,0.592 0.388,0.08 0.692,0.058 1.026,-0.027 0.617,-0.13 1.629,-0.971 2.886,-2.406 0.679,-0.728 1.457,-1.534 2.412,-2.308 0.47,-0.386 1.049,-0.749 1.566,-1.094 0.553,-0.3 1.106,-0.587 1.662,-0.824 2.252,-0.914 4.503,-1.154 6.599,-1.064 1.533,-0.009 3.11,0.112 4.598,0.443 0.751,0.129 1.459,0.384 2.144,0.599 0.662,0.285 1.311,0.523 1.856,0.877 0.43,0.258 0.857,0.503 1.237,0.818 l 0.29,0.223 0.142,0.112 0.072,0.057 c 0.009,0.007 -0.033,-0.023 -0.047,-0.031 -0.021,-0.013 -0.004,-10e-4 -0.004,-10e-4 0.04,0.033 0.074,0.074 0.108,0.116 0.147,0.146 0.264,0.386 0.401,0.554 0.176,-0.098 0.302,-0.142 0.613,-0.237 l 0.315,-0.103 0.427,-0.128 c 0.425,-0.111 0.84,-0.248 1.261,-0.314 -0.465,0.102 -0.905,0.27 -1.339,0.403 -0.328,0.116 -0.461,0.182 -0.692,0.269 -0.258,0.107 -0.429,0.197 -0.604,0.312 -0.147,-0.15 -0.267,-0.41 -0.426,-0.57 l -0.113,-0.136 c 0,-0.005 -0.09,-0.072 -0.015,-0.028 l -0.274,-0.22 c -0.366,-0.304 -0.759,-0.597 -1.196,-0.855 -1.181,-0.721 -0.846,-0.286 -0.091,0.437 0.188,0.182 0.406,0.373 0.611,0.612 0.105,0.114 0.212,0.231 0.32,0.348 l 0.161,0.175 c 0.092,0.084 -0.008,0.033 0.044,0.086 0.135,0.246 0.289,0.527 0.423,0.709 0.105,0.221 0.328,0.271 0.491,0.138 0.14,-0.256 0.243,-0.452 0.335,-0.458 0.125,-0.082 0.251,-0.141 0.384,-0.194 0.209,-0.07 0.439,-0.135 0.67,-0.196 0.396,-0.089 0.796,-0.179 1.206,-0.271 0.415,-0.049 0.838,-0.1 1.275,-0.152 0.753,0.041 0.586,-0.587 0.978,-0.565 1.225,-0.022 2.287,0.26 3.162,0.626 0.443,0.162 0.842,0.352 1.218,0.517 0.382,0.145 0.732,0.297 1.089,0.387 1.076,0.296 2.02,0.73 2.896,1.264 0.262,0.19 0.527,0.379 0.782,0.587 0.239,0.23 0.474,0.471 0.704,0.731 0.254,0.35 0.459,0.758 0.683,1.138 -0.371,-0.171 -0.637,-0.121 -0.896,-0.061 0.411,0.442 0.948,1.073 1.234,1.519 -0.286,-0.446 -0.823,-1.077 -1.234,-1.519 0.259,-0.06 0.525,-0.11 0.896,0.061 0.706,1.388 1.02,2.713 1.701,3.586 0.327,0.432 0.773,0.761 1.338,0.988 0.567,0.226 1.235,0.339 1.916,0.409 l -0.037,0.058 c -1.616,-0.074 -2.966,-0.199 -4.29,-1.296 0.579,0.444 0.618,0.248 0.173,-0.366 -0.205,-0.094 -0.413,-0.206 -0.614,-0.326 0.305,0.652 0.692,1.293 1.284,1.712 0.589,0.42 1.327,0.573 2.014,0.434 0,0 0.582,0.22 0.894,0.295 0.463,-0.068 0.443,-0.285 0.539,-0.453 0.316,0.013 0.637,0.025 0.959,0.038 C 2.534,-0.416 1.835,-0.204 1.204,-0.098 0.574,0.016 0,0 0,0"
               style="fill:#ffffff;fill-opacity:1;fill-rule:nonzero;stroke:none"
               id="path29374" />
          </g>
          <g
             transform="translate(155.0093,973.6411)"
             id="g29380">
            <path
               d="M 0,0 C 0.219,-0.019 0.49,-0.009 0.777,-0.001 -0.259,0.058 -1.289,0.266 -2.237,0.672 -1.837,0.182 -0.906,-0.007 0,0"
               style="fill:#ffffff;fill-opacity:1;fill-rule:nonzero;stroke:none"
               id="path29378" />
          </g>
        </g>
      </g>
    </g>
    <g
       id="g29698"
       transform="matrix(0.35277777,0,0,-0.35277777,-186.6892,359.61941)">
      <g
         id="g29700" />
      <g
         id="g29748">
        <g
           clip-path="url(#clipPath29704)"
           id="g29746"
           style="opacity:0.85000598">
          <g
             transform="translate(129.1377,988.7104)"
             id="g29708">
            <path
               d="M 0,0 C -0.264,0.058 -0.528,0.136 -0.796,0.183 -0.668,0.12 -0.547,0.024 -0.432,-0.116 -0.273,-0.223 -0.156,-0.099 0,0"
               style="fill:#ffffff;fill-opacity:1;fill-rule:nonzero;stroke:none"
               id="path29706" />
          </g>
          <g
             transform="translate(127.6001,989.0361)"
             id="g29712">
            <path
               d="M 0,0 C -0.049,0.009 -0.097,0.019 -0.143,0.028 -0.187,0.014 -0.231,0 -0.272,-0.012 Z"
               style="fill:#ffffff;fill-opacity:1;fill-rule:nonzero;stroke:none"
               id="path29710" />
          </g>
          <g
             transform="translate(126.1768,989.022)"
             id="g29716">
            <path
               d="M 0,0 C 0.245,-0.06 0.483,-0.061 0.717,-0.042 0.52,0.026 0.283,0.05 0,0"
               style="fill:#ffffff;fill-opacity:1;fill-rule:nonzero;stroke:none"
               id="path29714" />
          </g>
          <g
             transform="translate(127.2754,988.7578)"
             id="g29720">
            <path
               d="M 0,0 C -0.074,0.104 -0.105,0.208 0.046,0.265 L 0.053,0.266 C -0.092,0.251 -0.235,0.237 -0.381,0.222 -0.234,0.17 -0.105,0.093 0,0"
               style="fill:#ffffff;fill-opacity:1;fill-rule:nonzero;stroke:none"
               id="path29718" />
          </g>
          <g
             transform="translate(127.2754,988.7578)"
             id="g29724">
            <path
               d="M 0,0 C 0.071,-0.104 0.19,-0.209 0.228,-0.269 0.165,-0.173 0.088,-0.083 0,0"
               style="fill:#ffffff;fill-opacity:1;fill-rule:nonzero;stroke:none"
               id="path29722" />
          </g>
          <g
             transform="translate(126.6812,986.5244)"
             id="g29728">
            <path
               d="M 0,0 C -0.135,-0.059 -0.039,0.58 -0.312,0.461 -0.934,0.351 -1.462,0.063 -2.019,0.089 -2.272,-0.056 -2.676,0.662 -2.938,0.52 -3.565,0.336 -5.02,-0.636 -4.129,-0.535 c 1.326,0.164 2.199,0.324 3.411,0.367 0.991,0.17 1.984,0.365 3.04,0.372 C 2.613,0.184 2.861,0.06 3.112,-0.048 2.797,0.143 2.465,0.321 2.083,0.487 1.585,0.776 0.811,0.058 0,0"
               style="fill:#ffffff;fill-opacity:1;fill-rule:nonzero;stroke:none"
               id="path29726" />
          </g>
          <g
             transform="translate(134.6309,986.3838)"
             id="g29732">
            <path
               d="M 0,0 C -0.156,0 -0.468,0.002 -0.468,0.002 -0.825,0.681 -1.515,0.81 -2.189,0.857 l 0.151,-0.402 c 0.356,-0.097 0.469,0.053 0.212,0.302 0.555,-0.652 1.156,-0.99 1.821,-1.282 C 0.038,-0.35 0.143,-0.177 0,0"
               style="fill:#ffffff;fill-opacity:1;fill-rule:nonzero;stroke:none"
               id="path29730" />
          </g>
          <g
             transform="translate(135.0259,985.7065)"
             id="g29736">
            <path
               d="M 0,0 C -0.135,0.051 -0.27,0.102 -0.4,0.152 L -0.414,0.096 c 0.142,-0.039 0.283,-0.078 0.42,-0.117 z"
               style="fill:#ffffff;fill-opacity:1;fill-rule:nonzero;stroke:none"
               id="path29734" />
          </g>
          <g
             transform="translate(123.2144,988.4912)"
             id="g29740">
            <path
               d="m 0,0 c -1.827,-0.088 -3.538,-0.282 -5.2,-0.561 -0.101,-0.149 -0.159,-0.307 -0.344,-0.27 -0.151,0.08 -0.296,0.118 -0.434,0.133 L -6.703,-0.836 C -6.78,-0.874 -6.859,-0.913 -6.94,-0.953 l -0.006,-0.005 c -0.114,-0.107 -0.049,-0.192 0.057,-0.262 0.109,-0.041 0.212,-0.095 0.305,-0.159 -0.059,0.042 -0.201,0.091 -0.305,0.159 -0.132,0.049 -0.272,0.077 -0.427,0.073 -0.205,-0.1 -0.424,-0.179 -0.665,-0.215 0.234,0.153 0.46,0.208 0.665,0.215 0.127,0.065 0.252,0.13 0.376,0.194 l 0.1,0.089 c -0.548,-0.124 -1.098,-0.234 -1.64,-0.375 -0.119,-0.054 -0.232,-0.104 -0.321,-0.154 -0.363,-0.199 -0.71,-0.42 -1.051,-0.202 l -0.292,-0.078 c 0.025,-0.013 0.047,-0.023 0.075,-0.036 -0.049,0.004 -0.092,0.012 -0.128,0.021 -0.406,-0.122 -0.814,-0.244 -1.224,-0.366 -0.212,-0.216 -0.418,-0.463 -0.646,-0.653 0,0 -0.258,0.128 -0.387,0.192 -0.045,-0.193 -0.154,-0.357 -0.31,-0.482 0.285,-0.089 0.556,-0.202 0.784,-0.255 0.379,-0.196 0.345,0.835 0.876,0.393 -0.531,0.442 -0.497,-0.589 -0.876,-0.393 -0.228,0.053 -0.499,0.166 -0.784,0.255 -0.323,-0.261 -0.84,-0.358 -1.35,-0.248 0.361,0.467 0.875,0.397 1.35,0.248 0.156,0.125 0.265,0.289 0.31,0.482 0.129,-0.064 0.387,-0.192 0.387,-0.192 0.228,0.19 0.434,0.437 0.646,0.653 -0.795,-0.252 -1.595,-0.522 -2.404,-0.821 -2.615,-0.938 -5.008,-2.118 -7.367,-3.366 -2.363,-1.234 -4.688,-2.642 -7.174,-3.75 -1.355,-0.584 -2.704,-1.026 -4.017,-1.255 -1.306,-0.219 -2.609,-0.23 -3.679,0.043 -1.336,0.346 -2.585,0.839 -3.542,1.546 -0.481,0.356 -0.868,0.724 -1.185,1.171 l -0.122,0.193 -0.06,0.097 c -0.019,0.026 -0.039,0.056 -0.074,0.166 l -0.37,1.056 c -0.221,0.747 -0.434,1.509 -0.612,2.241 l -0.272,0.048 c -0.104,10e-4 -0.222,-0.012 -0.332,-0.017 l -0.673,-0.041 c -0.454,-0.024 -0.91,-0.047 -1.368,-0.07 -0.461,-0.02 -0.927,-0.037 -1.398,-0.04 l -0.713,0.003 -0.114,10e-4 -0.045,0.006 -0.09,0.011 -0.178,0.023 c -0.943,0.131 -1.802,0.419 -2.394,0.885 -0.256,0.178 -0.551,0.382 -0.869,0.602 -0.109,0.108 -0.288,0.264 -0.463,0.465 -0.174,0.197 -0.322,0.426 -0.397,0.573 -0.079,0.154 -0.094,0.2 -0.115,0.168 -0.579,0.071 -1.228,0.853 -1.946,1.27 -0.697,0.463 -1.531,0.492 -1.648,0.45 -1.482,-0.301 -2.023,-1.636 -1.855,-2.954 0.065,-0.682 0.28,-1.397 0.618,-2.198 0.348,-0.803 0.791,-1.706 1.583,-2.777 -0.555,0.708 -0.562,1.039 -0.375,1.059 0.194,0.023 0.61,-0.239 1.187,-0.594 1.187,-0.776 2.888,-1.522 4.225,-2.479 0.891,-0.693 1.974,-1.052 3.047,-1.187 0.035,-0.185 0.111,-0.182 0.174,-0.17 0.024,-0.02 0.067,-0.031 0.131,-0.053 l 0.023,-0.009 c -0.002,0.011 0.106,-0.131 0.153,-0.189 l 0.372,-0.462 c 0.259,-0.308 0.588,-0.629 0.885,-0.926 1.254,-1.157 2.61,-1.974 3.919,-2.714 1.255,-0.699 2.742,-0.994 4.416,-1.176 2.268,-0.363 4.301,-0.085 6.167,0.453 1.867,0.54 3.498,1.353 4.994,2.208 1.495,0.859 2.856,1.777 4.194,2.624 1.349,0.853 2.727,1.678 4.184,2.416 1.514,0.83 2.577,2.038 3.75,2.946 0.912,0.539 2.062,0.698 2.842,0.999 1.227,0.487 2.215,1.068 3.177,1.649 -1.131,-0.462 -1.913,-0.921 -3.145,-1.5 -0.833,-0.374 0.282,1.008 0.807,1.385 0.199,0.23 0.823,-0.322 1.019,-0.1 0.53,0.184 0.937,0.606 1.471,0.954 0.213,0.207 0.357,-0.423 0.462,-0.32 0.743,0.362 1.175,1.305 1.739,1.242 0.416,-0.018 0.787,-0.032 1.151,-0.081 0.225,0 0.446,0.006 0.673,0.069 0.136,0.079 0.278,0.148 0.421,0.22 -0.145,0.182 -0.221,0.415 -0.295,0.652 0.226,-0.008 0.555,-0.112 0.778,-0.121 -0.223,0.009 -0.552,0.113 -0.778,0.121 0.074,-0.237 0.15,-0.47 0.295,-0.652 1.025,0.53 2.276,0.947 3.476,1.232 l -0.016,0.058 c -0.704,-0.069 -1.382,-0.029 -2.15,0.296 0.33,-0.117 0.302,-0.298 -0.055,-0.366 l -0.305,0.299 c 0.614,0.241 1.256,0.46 1.871,0.01 0,0 0.269,0.151 0.402,0.226 0.203,-0.09 0.195,-0.293 0.237,-0.465 0.137,0.011 0.276,0.029 0.416,0.049 C 1.099,-0.561 0.792,-0.376 0.517,-0.231 0.242,-0.09 0,0 0,0"
               style="fill:#ffffff;fill-opacity:1;fill-rule:nonzero;stroke:none"
               id="path29738" />
          </g>
          <g
             transform="translate(115.877,987.3574)"
             id="g29744">
            <path
               d="M 0,0 C 0.089,0.046 0.203,0.093 0.323,0.143 -0.136,0.045 -0.598,-0.046 -1.055,-0.163 -0.726,-0.386 -0.369,-0.187 0,0"
               style="fill:#ffffff;fill-opacity:1;fill-rule:nonzero;stroke:none"
               id="path29742" />
          </g>
        </g>
      </g>
    </g>
  </g>
</svg>
